6634.753
6652.063
6752.500
10975.956
6791.990
6836.222
7003.247
19073.950
19203.777
19398.176
19518.858
19697.598
19782.736
19829.620
20107.161
20136.886
20229.562
6738.033
20400.825
6570.098
20431.652
20515.435
20519.844
6851.792
20666.635
20768.115
20780.888
20878.515
20943.692
20907.841
20993.457
21124.054
21229.149
21231.828
21330.855
21341.113
21415.842
21490.374
21572.474
21587.590
21638.485
21586.361
21603.829
21976.929
10978.697
22270.307
22454.619
6484.553
6934.034
7081.065
10161.490
6791.262
6687.810
7595.601
19731.939
19815.351
19943.972
20286.192
20939.831
20151.952
20974.428
6691.798
20291.793
19071.792
19283.816
20711.376
6895.800
20457.451
22074.722
20205.296
20403.832
20467.820
20079.733
20723.544
20507.796
20492.534
20351.790
20251.833
21221.320
20463.819
20600.732
20738.767
6987.799
21863.780
21467.562
20915.826
20902.834
10369.438
22555.773
21312.783
20524.673
21104.949
21409.818
22885.541
6671.116
7139.247
7601.557
10497.309
6871.828
7099.386
6815.641
19950.622
20773.075
20149.786
19777.828
19894.548
19707.802
19365.246
19305.485
21049.573
19775.808
19868.712
6564.969
20419.849
20115.831
20211.794
20511.790
21001.637
20675.788
21151.802
20551.791
20415.794
7061.411
20543.815
19863.804
20443.799
20687.818
20148.688
20067.019
19495.756
21699.814
20788.743
22491.261
7133.711
21723.808
20463.822
22259.809
21271.797
11141.476
21832.378
22447.807
6637.808
7734.417
7879.978
9945.617
7080.672
7286.894
18617.407
7321.475
19267.078
19013.644
20768.035
19036.964
19353.101
20243.808
20034.904
19458.738
21465.390
19096.330
20860.219
20175.841
19411.843
20191.372
19746.031
6729.110
20629.276
22083.803
20683.771
21323.835
22917.570
20719.787
20433.788
21379.632
19395.875
19797.439
20486.527
21425.321
21140.563
9959.795
7086.748
20150.215
20856.493
21749.442
21041.046
20557.260
21855.171
6680.006
22817.042
6663.879
7352.331
6947.487
11069.119
6790.758
19209.431
18810.724
7124.470
6901.337
21102.401
19430.732
19789.710
21231.968
19469.548
20802.826
21654.990
20646.052
20551.765
20238.152
20319.458
20393.993
7044.062
21099.818
20011.867
20118.729
21307.789
19759.794
20946.607
19866.272
20687.968
20572.002
21872.266
21783.802
21034.814
20892.281
19129.775
22207.811
20043.759
20108.092
20107.796
20582.281
21467.975
6967.183
21293.112
10855.831
21046.504
7003.813
7006.633
6779.457
7101.942
6919.630
11108.202
20942.139
7326.987
21783.797
20469.537
6693.509
19647.777
20839.880
19984.717
21401.372
21359.781
20579.159
20823.570
21999.790
20459.810
20276.480
6725.605
21993.515
19479.924
21409.515
19999.813
20531.804
20787.796
21305.498
21007.817
20327.796
19171.785
21467.789
19983.793
22737.571
19922.227
20855.894
20241.509
20100.894
20502.010
20683.807
19105.572
19998.239
20939.882
6891.276
6584.133
10493.762
22452.919
6707.581
7242.754
7639.826
7095.804
10245.421
20613.993
20514.080
20183.795
19911.585
7067.093
21764.112
6966.805
20765.570
19029.523
21210.478
20619.790
21036.106
20039.816
20032.462
19835.804
21034.221
19536.073
20580.279
19846.675
7185.916
19755.809
20117.949
21111.486
19695.808
20330.707
21431.821
19723.426
21743.584
19889.498
20393.967
22397.957
20767.761
22076.042
20778.795
20815.330
22183.804
22085.174
22871.816
19931.053
9837.401
6365.208
6859.237
6444.147
7258.866
7353.040
7065.928
10878.229
19548.053
18651.512
20383.795
20465.287
21588.700
20375.809
6675.791
20151.851
7084.105
20443.824
21030.336
21406.632
20603.946
21012.115
19377.977
18311.839
19783.799
20451.825
19723.808
20878.717
21850.843
19934.888
6977.873
20265.027
21183.756
21060.644
19196.758
22295.823
22006.389
18895.797
20975.802
21463.799
20601.195
21570.922
21565.628
22539.790
21512.695
9832.216
21787.804
6524.223
22239.818
6651.060
7018.937
7260.784
7113.929
7286.604
10952.412
20637.837
19638.252
19526.330
20895.114
19963.813
19328.311
20012.649
21428.145
20083.832
6879.811
6885.839
19825.682
19917.409
19869.255
21679.796
20046.448
21105.558
20593.400
22295.808
20369.338
19533.434
21667.802
21383.800
19455.771
6983.668
19659.822
19643.967
19999.770
20427.815
19711.778
21721.111
22023.154
19597.336
20269.017
22451.822
21330.607
21092.669
20343.956
10371.163
21376.946
7337.650
7300.228
7339.495
6844.661
6626.865
9819.615
20290.689
20267.959
7472.861
20382.984
20897.402
19774.522
20129.461
19381.398
20296.708
19267.104
20642.077
6959.931
20087.800
22471.801
6857.674
21089.723
20391.846
19995.791
19679.809
20578.204
20631.689
21492.861
19160.928
19848.347
21123.791
21527.785
21544.071
20956.276
20357.424
20802.633
6907.418
21655.785
18906.935
20491.806
20690.622
21856.488
9561.230
21092.078
20845.543
23642.327
6538.901
23342.377
6428.380
10070.346
11244.046
6207.029
9347.823
19221.753
20048.295
18188.460
18622.975
18674.370
19985.882
19397.575
19622.664
20053.188
20780.305
18947.770
19460.104
20106.633
20588.764
6603.407
20572.402
19678.684
7164.646
19561.434
19471.820
20749.394
7526.640
18095.765
19433.547
21161.292
19303.786
20231.815
16847.775
19612.070
18703.821
18847.465
20813.193
21233.519
10032.169
19867.790
19703.809
20273.846
21465.352
6441.742
7497.168
7286.574
19214.549
20515.836
19194.964
11109.886
7446.441
7076.882
8319.404
21596.299
20340.150
21349.140
20602.831
19655.812
21385.131
20327.827
20415.789
23261.487
21697.270
19659.147
18745.704
19055.749
19389.342
19022.908
20957.382
20210.089
21527.525
19623.641
20527.783
21165.462
6703.660
20214.386
20763.810
6847.755
19579.184
19751.822
20627.824
7080.102
21921.823
20243.270
21237.454
21385.640
9970.530
21045.556
20077.664
21307.169
6658.999
7065.959
7372.762
21120.779
19837.364
9832.642
20722.336
7451.772
7645.085
6660.179
19917.014
21117.364
20913.145
19682.259
21437.497
20942.420
20987.506
21802.695
19839.775
20195.801
20263.802
19389.675
19473.525
20469.594
21491.809
20883.773
21335.812
18855.766
20681.287
22347.815
20089.424
20832.233
20094.954
20308.547
21010.354
20481.701
7249.087
19951.585
6837.608
20087.792
19215.801
21085.882
7549.587
10674.636
21571.843
19630.936
20087.451
6742.341
7877.541
7142.545
19859.871
20771.571
11132.230
21756.841
6897.991
20723.173
6992.142
18968.305
20915.803
20147.795
19653.431
7220.978
20349.409
18752.961
20435.759
20759.807
20043.776
20239.809
20759.807
20247.795
19519.859
21058.439
20655.841
21592.593
21780.751
20687.781
21193.511
20541.830
20224.082
21891.824
21378.865
20119.783
20028.558
21068.877
6657.138
20658.878
20915.792
7173.895
20989.526
19931.217
6739.893
10362.667
21604.353
20726.084
7648.270
7055.305
7327.378
19349.516
21063.844
19169.309
10349.200
19598.156
19454.112
7041.104
21094.951
7402.937
19585.767
20086.806
21892.983
6777.410
20109.635
19887.843
22447.839
19289.582
20439.773
21283.820
21275.797
20000.673
19943.805
20406.643
21151.792
19553.219
21355.831
19990.751
20084.203
19841.416
19786.050
22007.451
20969.930
19625.279
20692.852
20130.864
19851.484
23554.042
7270.689
6607.366
21076.762
19591.799
9980.790
6979.185
21549.185
6964.628
7577.165
7000.792
20884.864
20283.056
20585.002
10600.432
20417.425
21028.423
19534.911
19282.046
6854.988
20513.498
19362.661
20805.617
20085.476
20731.808
20731.835
7217.496
7453.496
20997.463
21825.194
19878.059
19954.881
20395.787
21119.930
21275.823
19792.677
20383.331
21327.802
19499.678
19646.897
22115.800
20002.488
20878.958
19938.468
22061.021
21553.521
20553.387
21315.203
6856.174
20378.769
10414.679
6649.455
21904.920
7163.719
20765.429
6816.043
19795.799
20742.387
6999.813
7433.776
9701.889
22403.843
20209.333
21021.630
21048.077
21450.657
20355.906
19476.610
19683.831
7314.872
20150.173
19611.800
6511.788
20825.405
20497.015
20283.800
20047.355
21106.209
21345.617
6867.930
22090.871
20882.658
19658.053
20666.671
20527.784
20134.827
21803.346
21039.914
20775.904
20354.184
20207.794
20575.265
20644.093
21321.472
20006.434
21245.403
7336.326
10846.333
7375.272
20721.235
6862.074
21245.413
19883.384
7354.248
21527.784
6905.555
7200.168
19889.645
10084.705
20677.970
20691.800
20200.469
19759.812
20523.163
20173.335
20667.776
20540.354
19642.671
20263.805
6690.710
19929.495
6958.707
21170.770
19157.910
21619.711
20579.677
20759.818
6732.046
21759.796
21839.803
19987.789
20851.658
20509.141
21181.392
21399.803
20079.766
20254.265
20959.786
19424.024
20401.444
21096.582
22050.305
20165.236
6802.808
19645.528
10957.363
6959.801
21031.966
7025.285
20547.906
19908.533
7339.607
7261.326
7196.029
20493.024
19564.139
19287.811
9996.770
19617.731
21350.238
19086.970
19933.851
22018.395
20691.786
18780.050
22159.801
20835.103
20953.251
19999.807
6847.629
20511.132
20330.320
20820.127
7600.936
22875.767
19643.309
20100.089
21811.788
7005.343
22520.342
20497.506
20799.800
20445.260
20327.812
20081.926
20329.158
21461.698
19874.798
21379.447
10186.485
21006.731
23443.177
6574.083
7080.576
20882.501
6893.995
20537.341
20939.244
6913.167
6871.159
19844.638
20151.975
7001.620
21291.627
19878.641
10325.342
19777.392
20170.144
21081.474
20273.026
20456.586
20364.363
19818.172
19524.568
20035.808
21739.801
20988.585
19389.500
7059.815
22023.807
7257.398
20023.790
20593.422
20187.837
21931.811
20318.275
20439.822
20724.577
21189.433
19462.772
7277.880
20603.815
20484.172
22809.697
21391.821
19882.812
19403.821
10485.779
21345.605
6788.836
6634.654
21654.017
7298.584
20992.771
20773.277
7147.975
7247.776
20414.067
19442.560
20591.799
19988.084
9864.444
20579.822
7233.559
20733.075
20305.732
19630.909
20305.399
19816.595
20276.935
19821.955
20895.830
19543.778
21306.323
20040.502
20329.269
19971.818
6619.792
6562.637
20712.964
21494.005
23393.490
20575.774
21396.194
19569.505
20562.526
20017.804
20999.803
20919.797
22111.243
7475.047
21479.789
19594.513
10560.183
21425.515
21339.999
6711.818
20055.794
7042.216
6784.025
20235.932
20571.499
6849.131
20692.469
20871.682
20730.702
21345.383
20219.661
10505.135
20727.952
7265.905
10618.592
20094.510
10814.396
20062.430
20255.584
19517.179
20728.149
20276.401
20348.157
20301.875
20402.497
19467.849
20745.708
20085.993
20795.799
20215.790
20681.346
20586.343
19711.806
21054.171
7114.624
21083.756
20617.617
21940.899
20993.373
22656.001
7262.229
21957.162
21230.472
10230.178
20463.516
10207.007
21040.199
10851.803
7251.650
19998.817
6902.654
21559.836
19890.193
20127.781
20681.622
19949.079
7088.383
21041.778
20165.393
11092.381
19553.561
20323.965
19377.430
7124.564
21283.869
18930.055
10563.868
19947.953
19733.622
11764.201
19838.444
19313.426
21756.408
19684.169
21479.169
20088.663
20555.818
20268.600
20781.757
6617.669
20225.499
21431.786
20680.912
21703.770
20118.853
21146.917
21286.657
18988.522
6863.804
20910.578
21505.738
20249.456
10459.774
6889.613
9958.161
19024.689
11455.336
6724.640
20328.713
20308.970
19989.239
19562.210
7022.980
21356.176
20126.847
22965.659
19463.802
19415.769
10441.149
19962.869
6676.547
9996.279
19160.970
21943.786
20629.990
21969.001
20073.584
20815.176
10576.522
22311.800
20247.802
21795.799
21243.818
20065.493
21243.339
21024.160
6940.194
21960.781
21277.855
19429.505
21061.229
21963.278
20680.349
20770.755
6959.701
20774.651
20721.537
21274.721
10425.639
10689.003
19969.438
22584.447
7437.242
10000.228
7016.539
20531.595
20621.630
20519.770
22095.266
20037.321
20538.363
7194.094
20770.069
20835.315
21758.672
10363.808
20337.978
20065.508
19755.803
6731.807
20551.809
20664.025
20107.128
19925.648
19073.474
10529.467
9649.601
19902.992
20481.266
20388.954
19248.443
20453.368
19565.411
21605.527
20975.623
20195.777
20486.954
6854.739
21200.139
21555.125
6712.122
21417.155
21517.275
21460.340
21002.068
9744.230
19381.252
20119.695
10166.732
10938.959
7001.441
6799.877
19986.400
20344.457
20211.402
21592.767
21044.226
21624.479
7058.662
20155.235
20897.184
20752.956
21745.530
20178.284
10941.423
20383.822
6897.463
20154.745
21071.785
10027.777
21501.339
19895.801
21231.920
21548.545
10136.155
19883.040
20937.074
20364.287
20527.977
20812.444
21663.796
20563.627
21775.814
19922.973
21543.163
20364.806
7325.339
20388.041
7439.075
21204.189
19455.898
20836.367
10226.247
22518.245
20170.409
9751.986
11347.697
6997.583
19884.824
6604.405
20942.704
20028.705
20778.581
20369.157
19479.784
21053.360
20006.153
19829.739
20694.501
20597.770
19547.781
10293.464
19460.663
7289.954
20655.788
20070.560
6924.525
10287.113
21531.805
21748.642
20844.571
10364.498
21009.344
19532.197
21425.471
19450.333
20039.809
20962.130
22157.481
20954.043
20673.271
19717.273
20908.841
7366.294
6935.182
22027.668
20612.685
20644.737
20556.951
19774.677
10216.210
21016.771
10080.279
10088.212
19659.531
6902.502
6920.201
21198.175
21398.933
20412.964
20947.720
19651.834
20456.075
21219.788
19830.159
22450.689
20203.823
20971.781
20267.961
10772.356
20043.588
21221.602
6673.541
6766.057
10271.782
20697.474
20956.377
10355.790
20816.897
20404.189
20439.819
20243.784
20507.617
21739.601
20062.961
21300.530
22374.038
22098.004
21967.418
21975.270
19580.121
6705.103
19413.039
6992.264
20300.199
19459.796
21827.402
10320.112
21210.182
10691.252
10191.805
20809.968
7413.313
6962.027
20206.009
22001.549
20014.784
20423.790
19914.322
7378.919
22241.564
21048.940
20095.709
19743.096
20824.938
21359.813
21299.807
20430.711
21689.442
10241.390
7001.710
6963.216
20828.501
19591.897
21205.542
19668.887
21013.788
19353.605
19302.069
20753.857
19726.673
19336.377
19449.370
23411.152
7047.989
20458.898
20163.805
21300.219
20106.162
19675.059
6557.482
20363.650
7144.610
20242.044
10391.989
19929.499
20441.367
6949.843
20993.135
7470.524
6852.094
19187.227
19756.896
20594.910
21328.953
19591.871
20435.816
20495.850
20253.866
7139.167
20823.812
20851.774
20342.095
9907.813
21891.944
19309.059
21334.923
6584.347
20476.115
19711.807
7015.845
20823.809
20975.817
23186.105
21046.981
20722.253
22673.703
21607.782
20881.446
20049.980
20325.515
19222.054
19758.802
7379.808
20665.442
21043.475
22028.706
6918.756
20185.931
6901.505
22216.653
9671.822
21249.163
21200.102
19372.140
6626.703
6696.757
7302.643
20155.112
19726.904
20887.291
20017.256
21933.632
20854.439
20208.504
21169.233
10394.095
20556.232
6976.712
21973.675
20479.172
20946.403
21576.788
19375.578
19941.235
21580.500
7430.935
21135.821
20265.742
6979.170
19875.788
20791.812
22348.959
20414.542
20327.596
20899.907
20386.340
21277.492
21120.330
20402.593
6867.812
20405.335
21817.268
21355.806
20609.357
6795.804
9792.283
6407.819
20365.353
19400.115
19841.069
20454.539
7002.139
7020.050
7687.963
20207.165
19924.176
20175.488
20558.855
19573.615
20321.921
20705.454
20160.003
10136.986
21009.690
20972.634
21039.829
20070.936
7425.406
20133.884
21248.981
20262.861
20292.094
21885.648
19960.546
21531.135
6922.223
7166.645
20373.795
19332.803
22127.803
22026.534
20996.662
21289.516
22327.771
19753.804
21405.438
19521.277
19350.909
6969.495
21971.768
20597.658
19850.709
6668.353
11056.422
21488.993
7658.921
20583.387
20254.974
7646.555
7009.362
19607.109
6717.423
21248.747
20922.724
20759.924
20447.410
20806.052
20826.811
20442.020
10222.888
20426.938
19207.787
20993.154
20823.790
19965.587
19182.509
20955.779
20111.004
20705.526
20226.065
20813.451
6685.805
7925.495
18795.991
19436.528
7071.798
20679.519
20463.803
20272.814
20058.678
22094.782
19555.812
20450.151
19821.920
20483.815
20990.729
21447.812
6584.171
21329.483
7134.341
19538.044
10768.485
20899.778
6647.790
21156.364
7082.005
20591.001
6585.073
20079.919
19303.481
7395.805
20794.043
19839.247
19819.806
21179.675
20333.098
20553.555
20197.162
20127.311
22856.551
20820.624
19273.533
21087.798
10926.621
21171.808
20636.677
21065.536
21943.093
7055.870
20128.402
6691.255
6807.825
20757.872
20984.179
21277.639
21898.383
19975.805
19897.584
20800.984
20285.490
20585.736
19917.693
21421.746
21010.038
20037.505
19437.410
6573.955
7057.560
20733.790
9916.188
7716.169
21439.054
19792.980
20194.879
20582.092
20199.913
7169.512
7641.388
20351.795
6920.914
21833.629
20224.905
19334.245
19964.405
19970.396
19970.903
19906.093
10417.366
20781.443
20903.811
21346.413
22249.336
21432.672
20298.313
20790.476
21438.652
19481.885
6971.815
7034.575
20295.231
21051.471
20238.662
7099.790
20259.536
20539.159
19956.996
20112.897
22225.943
19801.249
19240.848
20419.790
19581.306
19980.555
22192.154
7083.808
7454.897
11145.448
7112.058
21035.514
20934.204
19997.582
20265.564
20891.243
20673.058
6877.545
7060.980
19887.772
20317.800
19571.798
7084.234
20587.561
19802.415
20281.650
20095.408
20145.669
21519.315
20257.166
20955.800
10325.441
19002.397
20475.251
20137.033
19761.714
19786.461
21909.140
7066.265
6946.324
20940.651
19946.342
7343.238
21577.547
21859.837
19591.807
23805.727
21602.031
19625.413
22016.765
21922.041
21013.622
20000.491
21753.514
10150.212
7098.067
7194.344
19808.570
6894.664
20014.332
20280.479
20895.599
19474.465
20373.883
21436.160
6753.905
21790.637
20711.804
7059.821
20078.595
7095.800
21469.454
20935.627
20079.794
19725.456
19546.180
21442.290
20655.806
20290.006
10352.340
19698.000
21182.888
19201.840
20378.521
20785.462
21449.110
19443.814
19456.042
6974.948
7166.795
19748.928
19945.370
21033.438
7025.491
21349.526
19575.801
22072.288
19898.669
21648.962
20884.070
21419.806
10611.148
7121.167
7436.905
6746.002
21964.035
19032.940
20249.081
20341.092
23054.120
20394.453
20206.332
20633.494
19462.002
19790.786
20008.650
7205.420
20227.430
7013.395
20491.815
21944.901
7131.909
19695.107
21331.935
20428.845
20723.493
9913.801
20090.771
19844.736
19899.788
19867.821
21651.945
19996.753
20558.371
19596.745
20792.099
6867.735
21374.217
7495.221
6995.800
22000.402
20738.261
21917.307
22363.957
21253.367
21086.457
19880.492
21323.899
10751.065
7167.171
20441.984
6706.665
19769.378
6817.014
19942.137
19319.133
19587.690
19891.503
21247.784
19578.686
21508.430
21997.297
20806.499
20945.171
20912.479
21811.379
7367.746
6979.793
20077.471
7401.892
21238.195
20579.787
20135.799
19197.658
19211.096
10441.809
20501.032
20967.802
20207.057
21928.132
20440.687
21659.804
21485.322
6502.105
20681.978
6979.811
20442.950
19887.793
21466.108
20719.792
19675.801
7751.823
20897.472
19600.020
19871.348
10563.136
19740.886
6713.552
20385.506
7599.907
7062.422
18927.689
21049.431
20901.320
21612.176
22347.023
18883.188
19405.334
20696.081
20941.323
20768.282
21931.796
19282.243
21538.618
19741.461
21143.601
7801.456
20397.906
6962.656
20875.797
19475.436
20806.409
10142.784
7207.779
20431.826
20223.443
20017.724
20474.109
18387.124
18635.791
21773.526
18837.133
18791.302
22656.286
19367.809
21519.842
7049.989
19937.079
20647.616
7876.306
20643.130
10194.690
10203.798
10433.906
21127.621
6901.353
22706.245
20475.577
17875.146
18608.179
6438.072
20093.360
22840.793
20263.568
19839.144
7575.825
18939.826
20547.152
21449.675
19644.610
21072.199
21173.909
20895.767
7278.207
22257.718
22888.709
21515.960
6415.826
10877.777
21824.290
20367.918
20802.640
19910.454
21581.419
6555.723
19327.693
20966.820
19863.250
20554.063
22068.188
20987.929
20784.362
6793.978
20593.498
20913.442
22639.512
6756.840
19087.736
21528.010
7375.706
20639.233
18791.375
10903.181
19393.585
20069.722
7764.233
20470.042
7039.827
20383.839
20301.911
21041.995
19758.069
20404.150
19519.774
20767.840
6663.793
19809.426
20866.959
20098.226
20967.812
21426.105
20707.805
7263.980
7430.473
21043.788
22215.485
21091.799
10569.484
20263.809
19856.307
19426.533
21632.076
19970.674
7461.471
23295.795
20775.865
19199.812
20023.778
21465.438
19177.139
19273.918
19308.291
23483.078
7405.488
7448.236
20901.816
6953.236
20647.962
19514.666
20483.791
18914.156
10692.043
19164.858
19709.169
6916.911
19237.241
20306.714
7191.779
20063.797
20416.063
19923.350
21320.335
21856.052
7413.342
20089.037
20747.799
22070.851
19873.366
18750.225
19069.569
20583.802
7456.489
20022.502
22331.799
7097.969
19807.550
21985.282
10809.630
21503.783
19196.211
20355.794
20143.796
21123.802
20256.287
7038.844
18169.519
19734.876
20901.531
20685.294
21218.612
7085.339
7576.509
20240.006
20852.603
19525.386
22245.776
7211.074
21354.787
10456.789
22720.082
20739.780
20196.455
19708.565
20132.935
21315.793
7046.032
7162.763
19247.808
21791.830
20731.870
21058.599
20651.427
19512.313
20023.884
7526.653
20851.720
19836.574
19771.808
19216.249
20187.454
18717.501
20265.736
21373.957
6663.806
20963.779
7245.939
20003.794
10798.174
20304.606
21090.384
19403.061
20395.811
20645.589
19761.353
6619.451
22810.563
21711.019
7174.183
7169.617
20584.121
19877.423
18655.617
20555.804
20546.349
7153.577
22611.167
19063.790
10644.546
21319.796
20161.923
18555.837
20226.501
20542.741
20348.885
6607.988
20765.518
20041.333
7207.176
19867.987
21638.475
19826.151
7031.785
21844.791
21480.254
20178.941
21339.792
20925.446
21671.597
20343.780
19858.272
20392.056
21467.776
20088.404
7559.806
10638.348
18858.718
7071.184
20123.525
20813.585
20875.815
21305.485
21463.275
6401.499
23734.918
19687.001
19193.146
19875.734
7406.741
6871.456
21544.768
6592.706
19631.184
20106.379
23596.285
19421.348
19005.843
21539.753
21198.848
11323.624
20064.793
20088.909
19747.575
19807.160
6540.739
19723.489
19637.901
7474.811
19748.216
7789.919
21586.173
19695.810
19711.808
19557.976
19553.833
21025.087
20659.803
21467.799
19983.716
23107.543
19844.715
19876.264
21798.625
20147.795
7255.727
6802.215
10270.626
21346.093
22501.517
21607.722
6937.700
19798.678
20420.676
21754.779
19127.681
7022.461
21933.337
22138.725
20652.461
21124.821
7011.824
20817.386
9740.028
20551.790
19134.695
10197.996
20874.346
10349.415
20459.418
22117.092
20739.636
21555.026
20118.113
20875.553
7005.445
19991.793
19760.924
20137.126
7056.175
20495.805
20086.870
19214.318
20041.949
20246.662
21937.748
20623.114
19791.636
21097.856
20808.510
10778.114
22232.837
11063.797
20196.978
6989.013
10604.250
20329.309
21462.645
6800.709
21149.834
19955.756
20060.279
21073.631
19782.137
6974.998
19392.838
7261.521
18865.408
20148.046
20600.072
21209.505
19842.579
7901.634
20181.719
19789.276
19514.840
21473.267
10610.345
20727.435
20094.928
20057.545
21927.142
7522.406
6821.561
20613.170
21274.805
19659.239
22251.812
6883.965
20665.735
19873.920
20383.970
21629.064
20091.603
20836.626
21041.584
22887.801
20550.686
20616.731
21520.594
10167.788
7069.678
6965.871
20273.577
21591.199
6738.837
19372.470
21745.427
20206.375
20379.852
20444.314
19948.632
19476.501
20379.818
19742.770
7128.094
20619.780
21336.427
7614.633
19571.793
19361.944
20272.142
7122.517
10053.028
20531.866
20720.645
20285.179
20826.369
21078.697
19148.558
7526.683
7017.266
20927.800
20195.332
19597.402
20206.690
6810.782
20272.828
21848.864
21681.242
19614.416
21710.948
20330.492
20029.630
20934.191
21376.300
10950.524
20759.430
6845.636
6867.818
21149.352
22365.614
6878.980
20059.080
20041.534
20229.958
20705.652
20179.228
19373.088
19644.001
21524.976
20130.267
21207.435
20225.885
6791.763
20675.786
20349.388
6956.179
20267.652
6923.522
9735.454
20945.416
21045.275
21632.337
20211.556
21275.527
19711.905
21729.026
6837.758
20195.783
6838.473
20759.779
20744.218
6873.056
19321.494
21939.581
21626.087
21191.883
20502.977
19697.024
20492.353
20843.540
10645.711
19589.163
21930.631
19859.815
21705.735
6965.486
7422.157
6870.786
20735.523
20665.689
19480.410
20544.192
22073.521
20233.757
21422.361
20054.227
19909.300
19895.863
20184.121
22297.456
6839.757
6968.609
21323.795
19404.864
21843.485
7235.719
10773.882
19150.267
21213.355
20773.356
21543.852
21097.940
20193.342
20988.298
6942.477
6875.792
21083.155
20597.397
20559.710
19614.711
19293.474
20006.122
7169.345
20666.038
20550.386
20532.930
22496.299
20038.839
10328.630
21053.548
19996.132
6742.311
7013.007
19391.800
22224.654
19518.628
20546.696
19901.774
19605.457
20779.798
20707.783
20133.606
10253.094
20713.028
10996.202
20284.173
20297.928
20009.322
22739.804
7155.813
21174.196
7363.810
21451.800
10932.555
20046.939
20537.823
19975.932
21247.087
20341.560
20250.766
19880.671
19584.561
21020.029
7526.610
20311.810
20619.483
22119.808
10451.791
20186.517
10734.093
21234.590
10035.800
20166.473
21269.490
10903.997
20877.517
20080.946
20578.431
10156.550
19919.703
20079.774
7149.549
21713.552
19874.895
19790.943
20234.932
20836.229
21200.337
19897.165
19690.353
10107.539
20325.984
20781.555
11546.906
22005.407
19999.794
19177.395
10568.537
7022.251
11042.582
9757.112
20542.243
20515.174
18836.132
21695.014
20815.796
20377.427
21606.016
20577.826
20105.434
20998.378
19745.645
20288.972
20396.697
7093.570
10446.377
10219.333
19923.813
10298.913
20768.720
20888.200
20444.457
10335.396
10409.902
20041.344
21633.319
19865.453
22807.789
22635.790
19723.805
19773.539
20365.460
7386.582
20801.773
20565.508
21125.288
20298.042
19911.427
20572.081
20263.782
20779.123
21170.038
10745.639
10643.813
9688.220
10081.564
19808.792
19746.652
10795.805
7365.646
19439.602
20995.413
21164.830
6925.355
22333.869
20050.631
21869.509
19938.584
20846.691
20018.752
20680.373
21279.309
19819.989
6992.108
10722.120
20244.120
10400.551
22147.553
9931.950
21624.076
19452.378
19759.798
6885.588
20754.291
20209.668
20196.023
20722.001
21617.591
19953.840
21014.411
21946.397
8068.781
22401.141
20695.534
20539.800
20343.523
21100.290
21698.268
20819.903
6959.805
10273.685
21582.242
20297.401
10660.318
10632.439
20068.462
22788.001
21360.846
7283.153
20077.251
19103.513
19665.218
19424.095
19653.934
20503.413
6839.785
20849.578
19955.186
21833.579
21224.344
20257.544
10126.239
19553.683
20317.882
20867.451
20548.496
10934.686
19871.992
6807.802
19859.780
11041.343
21045.054
9934.246
10263.596
21336.038
20766.316
21646.173
19437.434
20947.788
21604.613
19723.518
19963.104
21210.675
20602.738
20594.896
7087.465
21549.507
20539.881
10971.466
20583.870
10667.801
10764.233
22411.065
10101.377
9900.042
20887.859
19603.991
20506.433
21242.236
19866.759
20883.685
19263.557
20861.415
6913.015
20743.811
20376.481
19608.854
21897.796
6989.588
10362.398
20465.335
20540.662
20127.865
19795.743
20475.801
20865.347
10405.200
6799.820
21080.892
10678.236
20955.326
21031.893
20835.049
19986.643
20806.932
20399.636
19468.529
20241.472
7144.633
20328.346
20228.339
20381.049
20827.798
6996.136
10152.557
22090.178
20043.584
19300.085
20308.491
11539.546
10793.135
20135.793
19153.409
21311.785
7069.267
21490.485
21246.267
22115.798
20575.935
18695.642
20451.799
6975.416
21244.154
19996.855
21642.098
10461.047
6799.783
6778.508
20135.827
21056.883
20215.767
20865.975
21378.379
21206.682
7522.765
20155.214
21040.716
19932.056
19194.640
22936.919
20741.166
19686.913
20025.485
20619.328
19263.113
7239.762
8110.534
20014.622
21053.306
21314.850
7229.994
20602.242
10893.541
19651.379
20591.790
20521.586
19724.980
20397.966
19631.028
6897.895
18982.733
21623.841
20283.814
21757.556
7073.602
20455.810
21571.552
20511.618
20395.825
6716.740
19491.482
20071.131
9528.230
20940.967
20030.349
7169.109
20625.540
21401.941
7095.790
20249.774
19620.948
6506.332
19949.657
19610.937
22439.811
19765.183
20779.479
20739.807
22440.134
21571.782
20189.660
21996.265
19655.258
7216.477
20617.570
20979.122
7209.402
19593.990
6812.022
19439.810
10646.594
20658.386
20235.184
20844.134
20274.092
19622.344
20222.405
21852.384
21443.858
21399.792
21055.794
21351.502
21826.960
7327.817
21428.633
19518.907
7536.973
9712.468
9749.845
19840.108
18819.320
9855.473
19741.124
20865.710
20140.702
20573.090
7072.803
20732.928
19715.791
20665.478
20277.268
20322.927
7512.100
20087.578
19842.968
21078.337
19808.215
22192.956
10214.106
22180.411
10451.333
20763.701
20150.778
6961.796
20984.639
10831.421
21640.363
20952.861
19643.035
19790.647
8047.023
18883.772
19379.413
22153.511
20870.670
19893.168
20402.017
21183.798
6813.972
21701.266
21173.779
20971.788
21435.635
20083.809
10550.251
10304.633
20026.969
6919.279
9760.583
20030.919
21063.599
20529.032
20699.071
19988.159
19966.805
7646.736
21421.437
19493.593
22001.669
21960.227
20164.882
20748.437
7250.030
20559.343
10191.640
10272.954
20740.301
21463.776
22083.781
21153.198
19986.536
10684.293
6944.004
20882.775
20870.917
20701.464
21002.521
20076.199
6896.520
19825.997
19739.773
20880.129
20400.373
19571.808
18800.012
21549.427
20401.673
20121.956
20891.771
9803.328
7118.010
22245.089
19898.155
11236.727
6954.113
19393.944
10219.760
20813.886
21302.094
20316.163
19661.582
21065.783
6911.058
18885.501
20839.490
21336.036
20089.131
21858.501
19521.967
19997.512
7063.649
19066.725
10513.141
10537.282
21528.823
20770.767
21949.676
19414.108
22229.701
10563.002
19963.483
19050.280
7075.893
20433.836
20602.860
20215.525
7476.116
20397.304
21923.175
19709.504
20211.853
19925.030
21462.034
21271.783
20443.491
20648.277
10636.943
6741.344
21325.334
21225.656
10492.052
6858.926
20805.388
21080.885
20963.816
21693.550
11167.774
20605.801
20497.830
19562.429
20060.732
20114.501
7031.810
21121.613
20513.463
21309.062
22314.099
6859.324
20894.534
10940.334
19775.805
20080.302
9877.508
19717.806
20227.788
20067.626
20364.845
20936.850
20666.452
10531.808
7105.202
20649.553
21020.029
19810.857
6983.783
20371.542
19500.131
21342.275
19269.065
20390.976
21808.694
21327.000
20858.750
19980.390
6988.181
21283.180
10376.175
11811.020
18971.879
19952.231
20428.936
6988.902
21355.135
10986.469
21115.503
20711.448
19783.676
21040.262
21643.943
20752.166
6841.005
20409.053
20603.570
20151.274
20194.605
20313.627
20830.518
7667.798
10054.639
20554.458
21027.784
21098.725
10303.803
19676.942
20153.050
19434.314
6878.980
21368.371
10532.209
21071.840
19430.216
20259.815
20841.820
20177.474
20825.273
7191.463
20030.704
20667.769
22327.777
20120.189
20422.705
9977.304
7032.259
20801.771
20439.620
10488.023
20208.746
20757.156
20738.591
20250.670
19822.630
7193.670
10829.948
21410.301
20338.694
21577.197
19733.470
6705.548
21705.609
20303.739
22411.743
20404.947
20229.490
20243.813
19463.791
19985.646
10605.507
7038.054
19681.514
10058.462
21040.318
21854.372
19833.869
21619.229
7042.775
20390.375
20235.798
19232.641
11173.433
19826.648
21750.328
20155.384
20269.769
21504.187
20433.831
7591.299
22090.013
10515.993
21864.078
6913.647
19635.694
10048.819
20633.168
21811.169
20380.151
19796.361
21305.055
21424.186
7480.678
10876.563
20269.478
21131.570
20711.335
6608.308
19524.112
19949.574
21397.646
21735.837
21698.544
19957.210
20189.861
9978.173
19940.980
20847.780
21250.718
10255.800
7065.469
20764.352
21530.817
21083.765
6734.443
21786.055
18404.470
20563.797
20076.668
10144.006
21523.765
21021.829
20466.350
22570.278
20452.909
19725.267
21368.528
18737.143
7063.964
10764.246
20818.024
7187.897
20094.340
11058.551
21599.747
19769.968
21645.757
19753.036
19797.348
19548.066
9878.070
6999.786
20608.565
19624.790
20538.163
21841.231
20570.568
6885.417
20439.798
19319.848
19123.140
18828.293
21406.038
19770.895
10040.689
9918.342
22550.176
6864.233
20796.719
19770.434
21514.734
7017.360
22651.967
20253.921
20359.817
20371.101
10548.025
20533.171
20125.458
20628.784
19797.626
21491.802
21154.069
22735.088
20427.938
6908.712
10225.547
21014.042
10176.613
20957.350
7325.525
20687.362
19649.325
21638.255
20322.535
21359.138
19736.089
20015.485
10966.310
21799.801
6894.626
20065.094
20591.772
20778.606
20500.957
21590.457
19641.665
20648.365
7502.026
21869.394
21394.221
10288.907
10232.024
19979.169
19769.294
20280.233
19111.816
7125.263
20345.351
19961.445
20242.700
19390.384
7197.934
20429.194
10326.705
21007.603
21035.125
21283.044
22638.571
19761.463
20136.896
21761.648
6900.533
10798.536
19708.510
9921.596
20723.799
20521.474
20731.038
6749.823
20251.833
20748.312
22129.556
20320.044
10139.749
20351.840
6985.012
21245.774
21386.141
20985.234
20661.966
19629.922
19782.803
20389.447
21519.809
6722.413
21839.447
21337.622
19537.571
10171.184
10269.578
20549.215
19835.786
19184.942
20754.807
21635.801
7316.013
21227.355
20522.361
7032.073
9981.822
20135.744
20644.962
21121.530
20379.755
20634.338
19955.374
21108.652
19821.266
20703.278
6869.012
11203.335
11598.705
6505.595
22196.152
20107.802
21437.505
22619.169
20729.115
22202.818
20767.799
20198.158
19635.800
10953.735
19997.232
6958.816
21233.824
21004.016
21702.664
19299.481
21057.765
21665.570
18825.483
19655.797
21407.637
6823.798
10261.902
20199.282
20515.787
10391.781
18970.207
21784.689
19359.925
20815.366
20762.435
6908.027
10632.291
19860.832
21117.553
20855.750
20126.499
21091.805
9938.543
20298.765
10433.172
21495.780
20069.248
21314.176
10308.642
20213.128
10199.778
20293.203
20037.908
7092.787
22023.024
18954.122
21368.898
19931.794
20291.938
20167.803
10260.097
20459.446
19655.020
10283.824
10765.435
20570.059
21164.378
21096.185
21727.932
21787.309
7059.816
21921.994
22229.441
10073.937
19602.693
10616.387
19862.101
21283.179
20658.661
22287.787
6699.988
21385.706
19606.987
19912.396
7106.710
20207.822
22122.341
19837.977
11000.234
21097.617
21513.745
19700.106
21501.782
20019.996
19538.417
6725.633
10297.358
20684.526
10668.902
19715.271
21513.874
7497.678
19647.024
19777.654
20241.679
21857.843
20815.214
19781.022
20499.044
20435.138
20091.338
20052.867
19333.468
7599.811
11196.427
19549.149
20113.480
19921.286
20709.851
9519.915
6895.784
20282.851
20263.515
20322.140
20723.723
11184.403
21760.811
6619.053
21322.681
20569.488
19109.126
20430.416
20447.784
20114.159
22296.082
9983.471
19951.857
7586.589
21179.802
20510.432
19133.719
9468.224
20532.937
6735.375
20769.163
20664.492
20927.479
20273.462
22039.777
11023.814
20016.300
7373.055
20653.410
22467.977
21415.385
19353.873
20562.802
20743.660
19931.736
10665.536
20774.140
7091.402
20714.152
22330.167
21365.053
9923.801
20393.561
20738.251
6872.675
20587.138
18761.406
22580.105
20391.650
22805.526
10734.049
6909.201
20091.800
20631.509
20703.050
20939.400
20034.184
19737.542
20309.882
19041.481
20386.019
22772.569
10554.436
19440.168
7391.316
10712.585
7042.205
18896.002
21076.895
20199.196
20775.956
22174.337
10562.906
19747.043
6648.737
21704.074
20985.489
19546.738
20784.601
20394.009
20525.184
10296.341
19419.037
21867.348
7046.218
21458.320
21026.361
20989.609
10251.799
21349.495
19741.577
7481.771
19474.461
20339.825
19975.058
21005.552
20201.131
19828.678
10404.847
20428.196
7177.558
20989.187
19891.794
20817.464
19353.546
21149.018
21264.584
10305.661
21587.812
22235.213
22014.949
7010.480
10767.816
19562.002
18765.286
20707.235
7312.952
19161.770
21100.908
20376.580
10526.517
19445.416
20732.709
20753.863
21151.809
7421.815
19122.077
20250.779
10040.558
21518.218
21150.789
20543.807
19979.783
21603.425
20635.809
7249.409
20612.949
10521.694
19121.970
20113.192
20631.565
20932.394
21167.799
7587.822
20229.661
19437.440
10235.644
6480.515
20555.690
19167.045
21205.431
20338.031
21599.281
10715.798
22732.835
20841.543
21377.766
20702.111
10348.722
6926.401
20098.646
20047.561
20853.559
6910.184
20661.411
19198.515
10483.692
21594.754
21393.447
20101.451
20713.463
20653.548
20157.906
19673.786
19532.460
20077.499
7193.622
10471.681
19700.570
20883.786
20384.155
21290.828
20575.512
7215.809
19276.853
11577.828
21481.746
20206.405
20639.804
20525.898
20983.799
6648.988
9976.080
21867.828
20035.612
19577.232
20888.456
7455.818
19245.449
19087.776
22065.662
21194.909
10901.488
21098.918
20611.052
6522.008
9549.562
21022.891
20559.779
20527.806
21591.983
7067.975
19586.085
19576.145
19975.818
10614.351
20639.927
20935.803
20107.790
22581.547
21193.897
19858.166
20071.640
6840.198
20383.662
10399.597
20518.851
21023.782
20795.384
20648.665
21023.398
10548.868
7507.806
20103.473
19938.960
21080.624
21170.111
18729.360
6970.291
20819.788
11216.511
21614.783
20635.795
20325.165
20485.480
21777.796
20036.039
9367.794
7102.697
21253.639
21384.168
19371.857
21963.797
19687.814
7228.588
20773.285
11255.457
20462.668
21619.806
19646.816
20933.313
7130.800
21333.167
20591.211
19231.786
20229.271
21205.640
19983.788
10762.305
20103.808
20010.098
9984.218
7022.090
19525.277
20707.863
20349.428
20999.833
20578.719
9934.836
7179.300
20218.266
20951.583
20148.289
22481.998
21641.649
6935.134
19628.486
22518.102
9922.133
20678.519
20557.092
19217.986
20621.027
22311.816
10532.991
20832.329
7322.700
19739.807
19366.605
20407.817
21021.409
21848.482
6557.429
10033.032
18480.466
19813.139
20380.908
20062.695
21622.669
20577.428
20035.450
7112.039
20336.318
22081.856
21815.804
11449.988
22854.336
6985.555
21125.455
20716.023
10905.473
20327.792
20762.246
20926.723
20330.201
19104.694
10619.778
6833.847
20808.138
19625.703
21277.733
6735.600
20748.580
20644.463
21053.762
20008.483
20155.870
19832.907
20813.646
20662.763
10841.065
10071.480
21727.500
6708.542
19846.759
19997.586
21458.754
20347.402
21127.817
6835.342
9845.142
20169.012
21116.879
20579.109
21236.488
19820.952
20881.381
6642.738
21800.763
22496.249
19393.408
20373.457
20800.083
9533.550
20033.149
20607.962
7509.965
11052.471
20010.813
20565.425
21985.193
21611.806
10471.566
18851.553
20918.109
7512.572
20999.636
20822.670
20358.463
6701.854
20594.076
20596.158
20319.825
21072.904
10462.562
20029.579
21131.419
19838.691
20477.183
19024.544
21333.303
10659.796
22879.795
21116.632
7353.909
9943.207
21145.586
7160.632
21533.470
20562.217
19769.795
19683.794
19943.803
21784.739
19963.809
20153.799
20443.390
20693.950
10220.988
7424.041
20747.946
20167.476
22149.657
6734.670
20438.220
10316.005
20732.044
20183.777
20996.812
19802.061
10498.237
20491.794
20246.751
7036.190
20022.301
21378.544
21968.864
19883.811
7455.857
21089.742
20735.951
10047.671
21417.045
19129.495
19776.488
20066.348
20268.384
21991.688
10308.104
21196.279
21354.017
6479.671
10544.369
21227.808
7060.925
19484.477
19977.758
20024.263
20641.260
21027.794
20354.830
20535.839
20164.915
20321.366
10308.854
20213.315
22367.006
20133.565
7338.150
19834.373
20497.561
21029.450
20127.791
19826.669
6910.530
11424.321
19906.290
21340.072
10535.760
18933.368
21252.090
7055.729
19571.785
20734.116
21913.586
7075.804
21626.831
21742.974
19269.068
10399.794
19433.313
21631.845
20119.814
20583.827
21093.364
22220.523
20580.843
19495.727
6590.069
11173.750
9939.742
19862.087
19665.034
20216.160
21169.157
22085.047
20756.747
20221.551
21855.184
10335.799
21021.499
19606.104
10808.351
20608.758
10414.133
20234.729
7061.271
20347.949
20674.859
20736.892
21313.936
20942.951
19396.035
10550.243
10579.957
22384.549
21358.621
21079.765
6914.264
20583.606
19558.516
19934.904
10365.886
19626.305
20555.300
10203.770
20735.810
10715.777
20122.089
20427.796
20439.697
19815.415
20969.622
21944.024
21122.623
10153.815
6900.807
10127.790
19937.974
21193.549
19741.549
19584.673
21661.142
20466.041
19055.544
22410.060
19878.961
10341.941
20688.900
10065.220
21313.279
10481.266
21899.792
19438.404
7035.832
21652.942
20389.715
21575.996
21970.176
21568.721
19863.797
10425.525
11323.353
20166.469
20703.035
20083.924
21555.295
7641.587
10300.830
20346.024
20875.800
19282.091
22087.103
21183.790
11206.120
10776.801
19917.377
20122.196
19429.317
19250.860
18899.074
20811.795
10121.501
7100.615
10858.786
21008.580
20643.827
19581.266
20385.480
21936.276
19341.237
19784.011
9832.012
20177.900
21269.461
22989.142
20691.993
10573.834
20979.769
10886.999
21369.439
20380.110
6890.694
21279.806
19977.565
21289.454
18995.797
20228.579
10202.565
10262.745
19983.776
20369.954
20641.283
10030.541
19525.618
19832.203
21721.415
7251.815
19687.951
10135.135
18822.776
21271.796
20086.091
22251.808
10381.585
20347.823
22827.825
20692.217
22393.401
10664.705
19357.746
10459.211
7343.375
20999.293
21375.268
21861.370
19976.686
21257.950
21183.554
20082.230
20284.177
10581.217
20125.839
20695.806
10341.779
20894.375
20680.007
10652.139
20271.803
19778.139
20540.116
19795.262
21234.076
7081.157
21753.605
10231.379
19692.071
20300.172
11018.623
22162.504
20215.354
19085.849
19607.853
19925.338
21149.418
11273.657
21408.316
20302.109
7167.492
19782.027
19930.060
10624.245
10125.029
21590.404
20525.322
20682.641
20227.131
10524.114
20055.097
10307.007
20402.878
19838.651
21059.767
20753.541
20866.188
21167.825
20311.437
20114.887
10970.135
22998.363
21851.798
19894.457
10049.301
19716.869
10552.120
10912.970
20597.220
10961.678
19546.535
20489.419
21446.196
20942.726
9898.666
19997.323
20687.158
10158.402
19307.532
19815.499
20547.476
20302.915
21124.640
9665.277
21285.965
21657.811
10243.823
10591.070
20852.085
21489.501
20046.768
11081.515
10181.476
20619.621
19564.240
23197.591
11320.203
20840.256
19485.349
10308.468
6777.898
20790.023
19574.051
21259.808
20630.784
21181.135
22974.381
19507.810
20099.815
20313.624
20271.793
20279.795
10615.751
20792.569
19767.577
20457.178
20251.795
11078.654
10982.652
6988.023
21401.634
19999.269
20670.471
10705.813
10148.305
19544.494
20832.569
20747.741
20039.336
20830.347
20852.392
20637.895
10363.817
7146.230
20970.932
20072.616
20567.806
21828.420
20908.526
10008.581
20484.504
11304.927
21295.526
10563.684
10408.222
20955.774
21117.425
19565.737
6785.946
20826.238
21602.698
21915.788
20123.826
20239.177
19821.687
21245.587
20408.049
20535.810
21415.401
10779.997
19719.792
19503.798
19763.497
10502.039
20805.327
19574.059
10545.879
6857.376
21073.078
20715.924
10162.827
10774.717
20014.502
20454.626
20311.542
19586.333
19413.777
21214.985
21029.699
19671.474
7132.037
10563.790
21526.886
20533.455
21409.795
21416.652
10910.240
10656.491
20652.324
22512.951
10106.924
10874.280
21375.066
19624.071
21310.047
6595.814
19769.253
21745.017
19259.770
19582.165
19378.574
20700.772
20774.875
21263.814
20413.154
21925.823
20404.102
10596.224
21301.278
19940.962
21752.210
20445.501
10370.764
19885.060
6835.664
10242.760
20646.890
9959.743
20141.163
20156.609
20154.487
10710.294
20667.699
19911.412
20450.353
20405.589
20160.290
20184.214
7103.989
21717.461
20028.455
10514.768
21171.878
10015.517
19539.070
20063.889
10756.212
10482.385
20271.755
20626.676
20458.928
20271.809
19489.356
10341.228
20387.794
7193.327
20178.226
21783.908
21246.685
19351.786
22608.237
20525.469
21391.803
21224.770
19547.784
20880.483
10600.146
10528.030
21170.393
22370.065
20821.776
19510.237
7043.790
11165.924
21572.949
19605.840
10410.491
9583.860
22132.452
20912.199
19533.237
20518.674
22022.541
19709.402
20255.798
20347.790
19365.957
9729.955
7076.729
21508.424
9710.022
21272.148
20879.586
9631.009
19328.921
19836.422
11775.715
10440.357
20953.865
20375.809
21450.157
21699.811
6761.246
19354.903
20381.084
19986.669
21077.633
21162.927
19728.785
22082.114
10289.778
20849.384
10834.520
22155.869
19879.632
23853.278
21877.859
21482.861
20408.831
9968.269
20275.664
7404.018
21253.550
9930.752
10654.145
20724.542
20348.100
19499.993
21095.683
20953.525
20219.791
19788.368
21254.722
21876.179
19936.439
11576.149
10198.472
7273.394
19332.049
20454.339
9996.282
18800.301
10132.618
20795.565
20169.384
20451.779
19790.547
19746.285
10769.428
20214.971
20047.125
20068.859
6665.717
21890.961
20533.578
20009.410
7627.808
19517.673
21689.544
20222.285
20463.806
21999.792
20785.913
19173.948
19935.806
20990.913
10473.399
22061.285
6820.056
10296.967
6557.459
19184.730
10356.298
19277.889
20269.382
19660.853
19825.391
22080.265
21933.757
22040.026
21007.780
22654.004
6844.828
7740.024
21861.251
20946.128
22491.898
9983.330
20107.161
21508.716
19706.988
19943.448
10263.788
20955.811
21151.849
20140.116
10573.482
20562.519
21862.011
20260.268
20595.997
7216.489
6931.799
21233.648
19086.976
20916.260
20469.255
21163.797
18790.579
21278.120
20105.475
20249.586
20433.425
10126.776
19170.045
20879.794
6715.493
10837.865
7453.940
10170.757
20040.634
18854.816
21497.296
22370.418
21040.783
20359.312
20426.723
21415.787
20396.558
19707.111
19257.157
7111.515
7006.127
20478.848
10071.798
20084.955
20099.800
20938.322
20144.511
20640.637
10276.981
20543.513
10753.561
20971.085
22223.761
21114.431
19767.028
20332.070
21454.617
6901.661
7020.280
19835.300
20298.298
20488.802
21917.373
19729.536
19224.835
20303.030
19997.464
21469.667
19603.697
10765.760
21103.527
19597.875
6971.802
10753.438
7129.140
10321.225
21230.291
21191.791
21107.186
20058.874
20221.246
19741.386
21578.848
21587.968
20521.457
20491.361
20730.439
7299.794
10474.521
20073.453
20501.965
20006.051
7581.461
19667.057
20467.333
20290.155
19334.822
11508.508
10947.785
19792.891
20525.545
21658.046
21277.997
6924.656
19594.862
22345.301
20147.784
20176.245
6621.990
20002.314
19414.510
20083.599
22315.796
21614.408
19865.351
21637.532
19881.737
10936.242
20627.402
7639.326
6955.800
10531.818
10489.854
20011.382
20480.070
21682.783
21677.508
20026.476
20335.823
19509.499
19462.405
19864.080
21720.100
22544.041
6464.813
18840.615
20377.963
21077.891
7271.812
10362.552
21251.803
21418.246
22419.031
20517.611
11080.327
20503.762
19149.091
20111.814
21856.741
11677.987
21513.435
20444.651
19938.140
6873.839
19972.152
19847.812
20141.546
19969.438
21558.222
7264.377
20616.812
20214.845
19600.602
19794.104
10201.843
21008.993
6416.468
10088.905
20525.539
19839.432
21001.275
7422.814
20139.804
20456.032
20673.711
20345.754
11229.745
21467.097
20089.437
20199.550
21275.310
20038.135
6949.176
10055.515
21461.303
21384.613
6779.116
21804.357
20516.284
22281.510
21048.765
19572.036
10490.553
20989.780
21062.563
20766.667
20063.130
10189.477
21183.784
19196.855
20507.783
21217.056
21499.804
7229.438
20883.817
20562.564
20534.076
20744.725
7233.342
20328.649
21153.801
10257.855
19337.940
6678.079
19968.267
20194.584
10207.788
20097.914
20699.808
19623.054
20257.446
20533.080
7724.469
10548.627
19814.812
20476.841
19961.929
20525.422
7223.580
10260.580
20164.901
22178.431
21106.851
19905.176
20668.458
6893.721
21591.763
20253.794
22066.861
20127.276
10581.901
20385.860
19595.632
20835.990
19845.951
20283.812
20038.210
20176.895
20265.401
20547.822
10573.146
20451.793
20599.558
7555.423
19226.914
20664.579
7075.053
10087.694
22827.535
20717.301
19055.131
18795.997
20229.161
20621.578
20221.031
20655.996
7152.623
10334.798
20190.657
9725.428
20207.266
7200.313
20463.963
20165.729
21805.554
19406.026
10665.958
19158.303
6901.144
21547.584
22072.879
20902.250
21167.040
20817.197
7003.814
20121.275
19661.596
21317.418
20336.142
20348.762
20062.055
10922.105
22330.389
20589.623
10505.547
20601.341
20185.104
21430.909
21907.594
20680.019
7077.657
22405.970
20216.729
6871.529
10051.781
22256.428
21134.277
19539.763
20309.017
21084.084
20245.073
20936.763
21398.883
10114.581
21802.862
7500.079
20260.377
10821.985
6637.346
20193.277
20356.894
20287.129
20114.239
21489.510
11171.448
20329.403
20378.554
6562.369
19289.370
18826.088
21524.575
20511.767
7403.166
20293.631
20626.834
20224.066
10157.524
19148.764
20611.663
22958.319
10012.314
19269.299
19155.782
20162.093
22125.870
21057.379
23351.452
21759.680
6639.827
20597.256
21231.481
7200.636
10716.387
20219.118
22018.810
21069.807
19687.788
20716.203
20438.352
20724.874
6975.646
10583.555
20534.340
10061.695
22181.106
21474.384
7176.037
20849.240
20443.460
20401.620
20059.084
19628.744
21171.822
20350.369
10491.781
6990.591
20007.444
20694.461
19855.790
20841.687
19791.262
20411.812
6993.043
10379.111
20871.800
19635.524
20258.548
19826.647
10664.662
21939.399
20351.042
20011.802
21211.841
20463.579
20910.329
7089.306
20568.496
6900.022
10196.180
19471.839
21850.753
19943.775
20950.854
20065.410
21050.234
21163.860
10282.163
6653.611
19965.770
9783.798
22815.623
21790.014
20880.165
6890.264
20909.759
19309.660
21951.194
20409.461
20260.947
19919.797
21786.208
6901.419
10708.022
19003.369
19918.775
20952.082
20518.785
21630.590
9712.146
22251.812
19859.571
7485.827
19431.790
20803.361
21546.086
10483.619
20993.068
20668.482
20138.189
20668.074
21204.379
21166.928
6861.513
20295.917
19775.028
10180.876
19587.794
6735.815
20947.789
21063.774
21420.220
20855.068
10487.792
21215.816
19246.489
7427.760
20737.373
20175.792
10210.747
20499.181
19516.255
20819.754
19625.004
7147.790
21491.990
20248.008
20675.041
19638.654
19767.806
9786.765
21143.357
7071.137
19646.269
20858.715
22558.197
10281.189
20898.872
20249.954
20621.014
19637.914
6975.800
22001.522
20403.761
21351.495
10599.792
20181.357
21914.433
21408.819
22243.791
20427.814
7184.282
20113.424
10393.441
19835.433
20197.749
20452.035
7244.820
21867.806
10361.710
20657.474
21083.903
20435.799
20405.523
6771.619
9956.496
21788.266
20337.282
20398.134
20996.646
19345.565
21503.796
20213.622
6901.318
9771.475
20360.380
20228.422
22334.646
19813.261
21759.270
6806.399
20204.902
19177.308
20249.274
10737.467
19854.330
19610.643
20839.791
6356.886
20855.810
22435.801
21671.822
20431.310
10665.085
20610.524
21432.769
6861.468
21743.626
21992.997
10486.679
20218.103
20511.798
21534.188
19532.057
6583.869
21616.749
20196.371
19477.470
19832.094
19545.423
10405.773
19683.415
7200.641
10582.419
21137.283
20235.127
6689.455
21719.794
20842.708
19452.326
22388.396
23081.785
11084.930
20894.823
20667.494
21373.964
21009.351
7280.066
21372.264
20162.455
10051.005
20485.532
19694.375
21973.320
19725.647
20723.805
7055.727
21223.768
20509.828
9947.768
21149.756
20037.210
20420.063
20613.491
20481.356
6878.576
19041.079
19250.576
20480.460
21396.108
19008.007
6941.180
11135.331
20222.637
20843.071
20883.793
21246.071
19619.803
11096.997
10237.508
7170.641
21828.910
20773.367
20651.772
6885.937
20242.442
19547.962
21044.431
19415.879
20254.508
20901.140
20926.764
21401.925
11114.748
7094.547
19406.436
21072.480
20287.468
20287.801
22029.124
20731.999
20976.629
10008.323
10988.653
19845.484
21252.473
20735.789
7575.956
21567.211
19885.424
18996.720
21086.386
20732.167
20420.403
6511.990
20616.037
19804.321
20360.192
21063.617
7011.934
10425.484
19764.198
19975.807
20900.854
20738.217
10508.184
10376.149
6976.156
20130.401
20950.519
20477.852
20279.447
21440.473
20802.081
6939.028
20243.037
21114.802
20197.493
19929.590
10065.302
20925.575
19628.308
20383.228
7748.680
21641.124
21963.865
21046.782
20876.359
9871.809
21612.875
10833.019
21234.935
6985.558
19744.345
22028.298
22004.095
20997.487
20818.612
19809.119
20156.839
20489.417
20515.211
7114.102
21966.801
20488.542
20198.420
10084.675
6778.753
20105.880
20755.549
20765.722
21570.326
10526.374
19490.325
11334.383
19235.356
19621.710
7047.684
20679.009
19983.804
6814.762
21555.799
19163.799
20677.601
20343.074
19931.614
20443.097
10843.795
19168.888
21493.187
19505.957
21947.238
6975.554
20824.828
20463.835
9926.798
20401.099
20319.854
19974.689
9889.387
7187.810
21486.700
20618.317
21162.698
19414.989
21862.403
20674.020
20224.533
20600.453
20152.782
6837.908
20383.759
21309.990
10219.010
20304.040
6985.474
20665.374
20981.467
9909.427
21360.936
20414.285
10634.416
20567.721
20707.807
6494.721
20501.847
20594.177
19453.410
20906.000
21056.740
6946.447
21762.735
21745.229
18960.812
20985.059
20187.110
10836.934
19845.476
21315.018
10266.171
7325.852
21110.048
18384.201
20118.175
21615.792
19269.450
20419.919
20073.436
10556.160
7385.372
22779.294
22843.858
19363.516
21744.605
22078.100
21917.338
20883.456
18845.618
20964.215
7064.094
20889.131
20190.883
10366.462
20599.805
6929.641
10002.184
20222.797
20972.848
20071.099
20172.949
19438.985
10976.332
20693.854
6904.330
20265.136
22123.799
20421.969
7257.993
22334.142
19868.592
21279.938
21579.249
10080.029
21731.311
20893.252
10291.540
19985.178
19946.548
21271.116
19896.443
6847.991
20853.230
21343.349
20115.695
20975.158
20965.637
6944.014
20606.998
10816.243
20423.330
21348.896
21501.802
21110.120
20112.915
20890.727
20205.377
6905.704
21123.976
21110.696
19808.492
10179.387
11247.775
21680.859
6928.645
19803.150
20582.112
20074.267
21448.056
18965.164
10053.892
21121.116
7580.476
20702.517
19996.835
6835.199
21365.443
19962.596
19994.446
7138.873
19759.016
19745.381
21198.155
19981.652
18731.910
20283.807
20602.601
19981.428
20052.213
6876.128
21426.530
20739.654
6705.929
20512.338
10688.439
7511.802
20143.809
20798.875
22638.157
20971.827
19919.284
21188.143
19947.070
20084.029
19746.756
19572.870
7184.987
22561.644
6829.852
20765.759
20609.372
20612.832
7051.813
19567.794
21328.633
20893.043
21372.013
20197.594
6557.931
11444.183
20926.712
19537.421
19646.967
20265.252
19633.137
7319.999
20957.752
6856.666
19616.935
19978.826
20361.247
21877.577
20282.002
19910.721
21255.018
21792.498
6962.796
20742.185
20602.311
18596.315
7217.699
21559.633
20220.230
19725.700
7310.519
20195.321
10693.705
21145.190
21249.626
20685.458
21674.696
21349.271
20341.930
6590.982
20935.721
20829.938
6832.370
21589.066
20164.604
20482.637
7202.129
21336.837
19770.127
20763.967
20973.913
19871.892
7441.381
10271.753
20709.412
21064.457
19737.889
20882.740
20876.734
6713.202
20540.823
19849.355
20052.523
19529.534
20414.065
7527.816
20605.513
19187.809
20855.393
19500.711
20237.761
7160.266
21442.489
6967.810
20489.844
20669.515
21554.588
10432.929
6759.564
21630.678
19463.689
20637.884
21710.718
20569.449
21646.939
21576.635
19007.651
19121.291
7026.577
20446.343
6627.457
22314.854
20498.451
19769.177
6672.825
19976.653
21689.434
20996.898
19735.692
19966.231
21278.525
10018.380
6915.364
20011.818
21025.535
6719.323
21875.451
20130.996
20717.416
20367.806
6936.680
21430.159
21858.645
21729.567
21095.779
20846.154
20735.447
21657.832
20328.266
7343.775
20441.364
20134.001
7373.606
20379.046
10227.406
19943.795
7287.387
19834.695
19856.754
20774.600
19155.295
22227.202
20703.896
20212.448
21288.452
21635.136
7060.076
20577.592
21370.600
18973.428
20873.398
20194.435
7204.802
19699.939
10847.811
10919.810
20009.211
21408.495
10226.444
19833.480
22445.547
21091.819
20847.430
7295.932
20265.831
19834.607
20874.695
21404.126
20958.356
19941.553
20880.378
7445.867
21426.790
6654.505
21058.739
19595.206
20095.841
21770.669
6511.817
19875.779
10058.109
20508.692
19997.119
21187.580
19325.453
6688.138
6732.364
21508.975
19733.527
19676.762
21460.148
21555.616
19084.500
19532.784
21116.665
7065.815
20814.183
20780.761
21014.335
20036.386
7332.936
7481.433
20285.401
20568.628
21230.798
10749.805
21930.604
20881.305
20253.612
21060.178
7272.647
19819.376
20740.900
19867.604
20307.046
20561.179
21257.363
20826.748
20426.120
21929.529
7271.563
7620.292
20664.987
20454.643
19727.763
20153.083
7120.203
19475.753
10098.134
21224.076
19491.868
19939.808
20990.132
20467.749
21662.269
20013.672
6784.002
6934.545
20141.446
20731.980
19990.818
20516.803
20110.387
19747.741
7145.936
19304.128
21340.894
20133.904
20346.625
6717.193
10178.535
21086.607
22926.686
20423.246
20659.236
20431.989
20080.784
6593.605
19287.433
10356.093
21065.998
20310.964
11085.414
20473.426
19254.105
21911.784
20535.655
6765.327
21103.820
20553.045
20024.074
21087.770
21855.961
6917.080
10150.918
20268.308
21259.768
19348.944
20021.434
21051.801
18451.734
21543.792
6980.343
10287.226
20909.810
10083.799
20167.765
22544.778
21941.331
6758.659
21250.865
19972.225
22205.906
20240.327
18925.443
9857.098
20454.539
21367.794
6985.703
20671.935
20453.508
21518.974
21001.674
19468.878
21602.102
20489.481
7308.602
10589.008
10246.696
21105.640
21303.224
20459.410
21705.027
21755.209
20575.931
6705.468
20766.246
20307.330
20734.405
19913.619
10263.502
20218.303
6958.156
21057.703
20178.901
20660.338
20215.779
22093.373
20929.261
6883.064
20255.079
20297.237
20736.130
10388.001
20685.983
11267.808
20289.845
19456.319
20077.874
7036.690
19779.649
19437.941
10023.244
20658.582
21053.677
6703.811
20605.747
20608.874
21322.507
22025.705
21487.885
19667.110
7119.524
22003.801
10455.793
20192.847
19729.524
10443.809
22590.831
19807.803
20714.969
20168.467
6893.495
20982.664
21616.798
21069.055
21263.944
19758.722
10126.667
20447.675
7392.429
20493.716
19951.802
20676.418
20607.796
6554.841
20364.864
9664.009
22075.809
20773.253
21493.648
21107.814
10331.801
19666.844
21017.524
22141.415
20098.442
7296.135
20910.024
10410.535
20733.339
20806.980
7250.915
19533.004
19945.988
20506.851
9654.018
20223.887
22733.802
19787.806
20311.368
23665.473
20615.452
18927.795
19608.529
19365.158
20470.701
10343.815
7768.024
6705.465
20730.193
19574.080
20518.317
21416.011
20070.563
18845.384
11241.411
22316.070
19879.191
20926.717
20973.330
7306.272
6833.414
10592.547
20709.403
21376.576
19871.806
20155.783
10407.049
20798.974
22291.799
19974.620
21078.901
20617.663
21403.380
19809.968
20002.787
19301.333
9842.845
6823.804
7189.704
19268.242
19621.416
20851.804
19962.030
20341.080
19391.825
19674.296
20265.509
21839.789
11178.557
20319.797
20439.792
21259.793
9977.184
7140.468
6872.280
20226.658
19968.803
20839.319
21051.935
20577.887
20870.147
20574.945
10784.359
20644.871
20065.679
21085.913
6721.299
20791.719
6701.551
20319.759
20394.690
10291.799
21498.653
10916.205
20678.669
21619.936
21249.149
19985.424
20951.953
21465.813
21669.282
6753.255
21404.255
23210.444
10383.806
19733.759
20521.697
20759.779
20651.809
9762.952
20967.801
9863.819
20943.961
21417.261
19663.774
20535.805
10199.545
20891.170
20597.901
20540.999
10566.642
6780.330
19821.308
21633.040
21774.712
20100.872
20332.435
19996.516
20564.024
10591.169
20073.539
20269.069
20632.843
9908.390
6854.217
10349.656
19999.801
20115.368
10632.824
9970.197
21306.298
21943.100
20904.695
20871.710
20264.441
20144.591
19941.528
22143.934
6910.435
21014.758
11158.417
22116.199
19452.662
19946.943
20779.770
20002.376
19112.615
10607.793
20089.176
10924.219
20991.752
22860.829
20323.781
10287.300
21209.516
21719.982
22427.810
10007.511
7170.099
20563.022
22259.975
20601.907
20176.174
22344.840
21145.644
19905.422
20981.453
19346.113
20324.226
10160.748
10402.416
6885.130
20798.098
10322.546
10462.654
22079.325
10038.184
19242.945
19990.706
20500.061
20414.886
19461.437
21227.439
20054.286
21568.987
19061.747
21109.978
7390.809
19912.026
10416.882
19641.846
20117.915
10404.679
21173.437
21310.232
19778.878
10029.358
21899.549
20585.564
20143.509
20563.800
10708.219
20971.295
10697.713
21689.682
7308.800
19764.588
20643.977
21026.210
19707.490
20880.591
20171.811
19154.100
21162.779
21143.811
21394.144
10810.079
10989.933
10956.632
20999.814
20362.240
7000.374
20149.602
19941.349
19321.348
10656.664
10494.199
19909.102
20983.894
20143.287
20069.219
21510.938
20663.797
21369.364
20891.936
20311.607
7103.884
10709.756
18891.763
19975.713
20157.533
20934.586
21032.610
20611.837
10374.283
21130.775
21927.803
10951.796
9650.744
19956.915
9772.995
20890.102
20703.246
20548.234
20895.803
7296.746
20356.373
21727.577
19597.883
19441.441
21919.943
21881.502
21037.102
18646.874
19455.740
11539.864
10265.120
10265.588
21014.380
20604.785
20991.817
10424.186
10905.369
6961.725
20045.932
21140.128
19616.656
19336.853
20697.556
20333.106
20651.776
7164.210
20717.437
19919.530
6800.243
21451.836
19795.784
7435.828
19623.804
20068.624
20923.795
10265.491
20683.512
21608.591
20035.716
21508.539
21689.955
6930.020
20562.307
20902.325
19477.892
21503.808
20209.450
7062.276
7198.515
20713.118
20443.790
21280.228
21870.482
19236.270
19808.805
21724.740
19956.656
20399.536
10999.819
19757.828
20578.060
20414.648
7424.309
20031.780
6712.607
7198.143
20353.967
21407.991
20192.408
21045.719
21736.001
21782.909
20810.219
19697.067
19995.801
6817.156
20080.071
7029.839
6668.318
22091.766
21624.623
21660.580
20319.800
10452.771
20821.134
20458.457
21253.158
20966.728
19975.198
19613.465
18713.581
20058.119
6788.709
20835.750
20682.610
7178.133
6670.694
21072.366
20955.763
19813.338
20745.698
20615.190
20309.117
19583.230
20750.926
20627.785
19924.360
10795.344
6739.639
21277.932
21777.544
6759.175
7115.466
19597.457
20140.980
20515.414
20633.868
20173.446
21597.418
19949.018
20726.700
6911.621
21483.808
20036.816
21575.785
6722.621
20903.312
19325.115
7542.187
20910.025
20330.882
21570.430
21361.345
11123.983
19035.387
20946.767
19850.471
19997.940
20684.824
20122.148
20704.029
6999.802
6608.375
19924.872
20462.710
7283.942
21807.249
20558.188
21040.953
21407.810
20381.861
20724.543
20913.733
20025.746
6733.252
6542.556
21743.033
10327.785
21837.307
20263.367
18913.510
7471.409
18845.604
21401.472
19461.195
19534.685
20881.897
6905.125
6794.021
20352.563
21053.775
22094.877
22349.927
19795.928
20618.527
21609.174
21063.802
20767.294
7237.298
21175.792
19825.449
10879.920
19736.003
20995.330
21755.343
19817.687
20414.132
21205.432
7114.498
7099.815
21480.578
20691.664
19427.798
20423.789
6982.062
23092.852
21186.452
19662.138
20362.320
20161.341
21236.871
6669.074
19912.410
6965.994
21442.620
20470.504
11037.825
20959.753
20081.071
20653.715
20045.806
6927.786
20941.803
20480.797
21263.478
19867.617
6819.800
7408.884
21048.468
19157.502
20129.419
20634.566
20072.750
20779.809
20183.816
22415.986
20439.764
6978.440
20379.123
19401.441
9910.316
20501.891
21811.020
20300.048
20965.080
6874.586
7045.111
20101.838
19331.806
19519.805
20321.219
6766.015
20702.785
20783.697
21433.645
21895.092
21795.832
20297.420
19746.922
6950.027
21009.158
20728.022
7031.809
20515.050
10604.176
19815.670
19983.745
6490.753
21495.734
19015.397
20560.184
20863.805
20275.813
6961.417
22094.662
21748.002
20167.816
21039.830
19777.243
20320.055
20558.863
19230.511
20765.575
6825.833
9372.209
10183.339
11100.210
21859.250
20244.381
23869.889
20410.699
22410.691
21176.477
7433.051
20917.361
21723.236
20862.714
22283.776
6853.222
20388.538
19811.485
21299.667
20501.277
19405.355
20992.691
20814.190
10051.779
20051.796
9771.237
19351.629
10389.366
7341.985
21241.649
21342.864
6639.082
20678.094
19619.666
21633.972
20736.706
20669.538
20291.024
19269.604
21970.278
21023.793
19651.821
21542.423
7145.575
20092.907
21047.776
20612.344
7181.325
10623.810
10205.392
20593.477
11420.219
20735.802
19787.297
21027.796
22015.441
21010.733
20322.504
19915.923
20255.984
6891.637
20587.072
20605.058
20331.995
7047.821
19455.173
20786.521
20958.275
19619.248
20085.259
21283.771
18722.667
19848.205
10984.390
10278.511
9906.410
7297.991
19894.007
21105.876
19430.747
19734.392
19901.827
10641.786
10579.800
20322.730
20519.824
22167.179
20637.885
19700.806
21715.812
20895.806
20895.819
20939.842
21861.486
7109.537
10226.715
10107.374
20757.170
10457.810
20589.146
20977.179
21082.866
19725.336
20417.490
7244.367
20294.289
21197.660
20884.628
21705.830
7576.371
19944.877
19796.578
19681.499
21934.434
20321.738
20445.560
20897.696
20415.892
20077.167
10101.786
6837.305
10900.362
19795.197
10387.943
20441.197
19499.523
7354.642
19095.905
19269.157
19467.492
19879.593
19215.800
6897.304
20898.940
20022.526
22387.796
20121.635
22887.713
22163.157
21981.884
10346.298
22639.800
6902.689
9897.721
19844.180
10853.411
21033.717
20603.800
22083.798
21375.946
18999.760
21378.947
7234.251
21277.424
19110.402
20376.281
21469.805
19853.420
20321.936
7728.055
21166.496
20572.601
19827.366
21399.783
20446.740
20865.378
10236.069
10174.509
19523.786
7400.156
10625.377
21511.795
21573.465
7141.283
21067.783
19116.429
20733.565
19866.459
20649.965
21299.812
19168.211
21422.383
20559.560
20622.609
7164.144
19203.815
21608.932
10816.060
18498.254
21791.799
10060.421
6745.376
20496.578
19875.783
19987.361
20419.525
10725.009
18865.498
20826.077
21115.571
7306.220
21784.683
19202.434
21807.778
21096.589
21504.707
21793.509
19780.388
7297.125
20888.902
20694.172
21406.851
21015.779
10129.122
10080.624
20387.888
10136.956
7594.573
20265.346
22318.485
21159.747
18957.982
7063.753
20157.420
20347.923
20209.705
19811.795
20393.526
20483.832
19991.310
21133.779
21303.769
6347.997
21023.100
10194.923
20952.344
20403.791
18683.799
11294.062
20323.803
21527.334
20517.700
20293.474
7018.233
9966.690
20337.299
19905.935
19726.147
20031.197
7343.671
19650.568
19889.158
21748.624
19799.649
21383.891
19840.126
7167.417
21577.879
21576.183
21874.343
19990.637
10147.782
10752.295
10948.987
19904.229
7009.857
18944.386
19590.393
19163.810
22243.788
20799.479
20137.535
7125.445
19171.592
19559.522
21591.632
21218.159
21975.829
22206.112
7025.931
20164.782
19991.599
20027.821
21484.196
10649.047
20445.510
10362.333
21534.542
20847.300
21022.077
6977.981
20593.372
10451.783
22563.367
19595.267
19091.116
19754.009
20105.575
6821.988
21781.760
20421.715
20308.451
20852.245
19977.227
7111.809
20549.284
20735.907
21132.095
10148.613
10599.863
10033.863
20252.981
6979.576
21414.749
20728.425
21461.411
20995.065
19759.769
21071.531
20803.635
6805.934
19880.362
20155.379
21261.364
20075.111
21818.687
19931.340
20355.140
20213.088
9968.907
7248.756
20610.112
19408.755
21922.005
10125.594
9772.518
20915.490
21623.756
21166.572
7451.006
20461.303
21846.452
20030.895
20716.069
21495.863
21497.994
20754.083
7387.788
19993.351
21854.162
20072.699
20350.189
20750.445
6839.351
20727.726
10395.817
9916.370
10566.192
19847.773
19082.339
19892.636
6916.359
20401.422
20029.435
19703.981
21077.311
20307.806
19938.768
20984.721
7387.543
19579.832
20991.816
20275.156
20967.809
20600.947
10513.309
9925.460
20597.545
21895.798
20109.402
9673.693
7665.586
19841.673
21357.457
22275.023
19647.797
7000.166
22450.286
19691.124
20712.574
21871.876
20679.519
20601.161
20081.680
21145.189
19767.788
21618.945
6823.745
19855.822
20771.870
20579.806
9911.564
6777.434
10310.677
19774.078
19693.143
20401.345
11512.630
20049.514
19865.821
20779.925
20685.994
21458.545
20522.524
20464.686
6903.711
10097.811
21394.977
21791.814
20113.417
10758.949
19989.965
21500.211
10053.610
10229.286
20445.264
20537.423
20937.593
19905.564
21175.123
20727.091
10631.186
20889.040
7039.176
20293.202
20838.317
19983.783
21505.897
20320.827
20378.021
20139.793
20537.097
21110.670
10560.234
20829.167
10632.405
10671.103
21304.417
21425.491
10654.814
20557.359
20235.774
7205.241
20502.132
19518.125
10308.909
19350.178
20502.051
20639.907
21159.358
20538.290
20693.047
19700.399
10431.779
20749.341
21015.845
7847.780
10345.568
21359.960
19666.504
9786.303
20988.387
20229.343
10186.457
21318.493
20544.334
20574.501
20400.031
10421.472
20122.202
21689.108
19234.058
20153.463
21216.262
7270.001
22212.514
20369.236
19957.520
20878.206
20967.323
10280.095
11079.182
21385.477
19571.810
10670.794
10041.986
20582.267
20879.793
20571.793
20693.652
19162.810
20969.715
7265.609
10335.776
19347.745
20650.431
19622.364
21271.347
20801.452
19574.362
20399.637
19960.853
9982.353
9943.959
21331.400
19766.904
7074.151
20407.772
10219.379
21567.265
10717.706
20711.024
20448.726
21707.167
10426.244
21171.817
20540.921
21278.700
20336.110
21241.481
21851.908
19826.798
20019.781
6793.878
21436.888
19511.465
21004.430
21787.573
9989.625
20562.607
11189.499
19659.963
19901.863
9988.053
20588.454
10956.556
18601.353
19711.691
20697.371
20224.850
21627.788
6914.730
10419.810
20102.745
20794.086
20129.217
21851.286
20691.780
10159.806
19811.427
21643.598
10093.784
20817.659
7181.548
21367.623
10091.807
10331.313
19831.798
21389.982
21594.482
20298.660
10630.534
21498.896
19109.348
20494.926
21125.707
20972.450
22702.935
20537.550
7233.746
21733.430
10090.715
22038.945
21164.669
9667.256
21455.839
22006.684
19415.287
20495.792
21074.711
19701.850
10115.621
21640.910
10445.548
20090.520
19585.015
21356.021
6556.838
21367.232
10807.778
20781.924
20713.571
20503.799
20616.962
21089.934
19213.821
20387.241
11254.221
10491.795
21225.544
19215.324
20129.228
19747.805
7257.997
10595.794
10399.407
19829.667
21644.115
20674.996
21116.384
21214.688
10503.312
19713.738
20069.813
19951.786
20197.528
7113.979
6620.914
18788.076
21113.263
19951.757
20412.526
20603.444
22175.506
20844.392
20775.804
19044.840
20481.962
21727.539
10096.674
10915.805
7247.648
22128.333
21372.615
6813.603
10719.490
21836.307
20789.487
19662.665
19119.244
19245.021
19088.124
20387.412
22417.328
19194.288
19948.972
20471.293
21537.560
6661.607
7552.357
20907.800
10169.405
19837.837
10456.024
20261.705
19859.886
20562.521
10407.036
21747.803
20203.830
20215.776
21171.345
7024.890
6995.141
23117.445
19744.974
21075.451
20154.464
22790.098
22651.990
20487.800
19723.796
19629.582
20607.784
21177.454
20265.169
10218.057
10355.306
19691.626
6573.898
7136.002
21381.940
20117.094
10296.186
19922.979
21541.890
20661.496
20080.511
20528.654
19828.042
20384.583
20165.523
20248.662
21332.379
19583.663
7074.930
20849.604
10379.021
7216.361
10281.954
21487.647
20708.429
20884.709
21794.847
9986.892
20823.665
21912.038
21903.779
21328.225
6949.679
19597.414
20582.383
6767.756
19384.596
19841.504
21591.241
20317.783
20228.372
20665.053
20113.579
21555.903
21779.801
10218.575
11592.249
20459.824
23677.550
19861.034
18546.217
9858.816
7040.322
20774.814
7265.049
19623.615
20692.525
19696.528
19190.070
19183.034
22419.805
20483.415
19915.985
20657.580
21226.711
19704.796
7516.023
20379.810
6722.588
10653.446
10588.618
10099.914
20175.054
22271.501
21861.436
21785.820
19959.543
21293.626
21087.825
19819.802
21662.427
19619.944
6642.150
6918.816
19693.464
19259.971
21132.303
20140.918
20801.274
21463.243
22815.720
21787.286
10355.274
20102.741
20893.240
10278.248
19859.459
19700.859
20255.693
10561.443
19409.059
7367.400
20579.930
7312.231
21534.397
20035.604
20841.418
20546.022
20587.808
19551.053
19338.683
21682.253
19690.507
21694.336
10401.472
7176.583
7071.759
10668.514
19470.649
10197.696
20513.913
21291.130
19250.856
20087.787
19625.419
19847.767
21093.938
21010.229
20057.386
20534.757
19273.349
7141.105
20817.070
7259.013
20238.119
21199.797
21989.537
19404.326
20657.535
19481.021
21622.659
9973.660
19696.487
20823.715
10925.498
10127.809
23386.495
20661.467
22421.652
7056.251
19187.820
6881.898
20181.469
20243.004
20849.137
20883.800
20745.361
20297.418
21672.520
21183.120
10150.507
22397.849
6766.557
20468.725
7303.795
10327.801
10641.775
19298.743
21034.417
20442.785
22381.312
19936.708
21773.507
22277.771
19866.696
20790.460
19314.888
18519.212
22492.614
21637.459
6777.423
20143.116
20553.087
6927.787
19563.497
21541.440
20051.787
20299.862
10505.924
20658.973
20721.573
10407.685
19233.985
10676.186
20042.046
18990.868
6864.423
19439.602
20883.800
20371.800
20652.285
7110.354
21871.778
20003.877
20400.402
23701.801
19767.925
19714.470
10718.352
6937.786
21704.702
19716.287
10372.515
6970.743
10281.866
21001.386
21717.449
20327.979
19804.243
20026.632
21494.712
22918.978
21374.782
21205.982
20196.293
7039.970
21022.755
20265.143
21382.965
20476.544
20171.712
21597.502
20887.814
7100.337
21081.549
10316.297
19797.182
21310.861
20391.815
10671.811
10464.377
20153.317
20915.789
19356.054
19899.834
6818.770
20005.759
20978.658
21126.521
6920.747
21522.447
20527.887
20370.647
20553.534
10440.261
21514.955
7043.393
20780.451
9787.495
21228.621
7033.430
19209.587
18626.183
11249.305
20609.424
20258.678
21388.937
19545.122
20539.793
20358.925
20916.582
21302.143
20085.856
19126.611
19647.804
6838.442
20564.624
20391.935
21959.387
6939.805
21171.724
9970.402
22388.492
19368.096
21382.074
20549.163
10412.121
19335.165
20700.161
20192.612
21391.786
10906.271
22408.216
7093.244
19063.092
21080.197
6723.816
21970.103
21304.218
20986.247
22019.236
10572.443
19977.439
19885.017
6696.123
10264.319
20382.073
6743.796
19639.663
20457.580
20659.783
20074.513
19862.365
10393.608
20365.846
22127.950
20400.137
19879.988
19581.118
20489.264
21070.157
6739.235
21950.108
20358.156
21529.671
7703.734
20982.812
9687.805
22377.151
20506.977
20344.060
20194.328
19678.962
21555.968
11308.716
19649.461
20941.648
10383.753
20211.393
7115.805
21565.397
18884.313
20499.816
21281.554
21702.051
7651.227
20821.891
21218.505
20079.796
11230.258
21139.809
7084.878
20295.829
20462.062
21547.540
20430.886
10578.044
19199.780
20244.226
7185.132
10558.072
21255.820
19617.360
20861.257
20327.102
20478.130
20175.068
19750.814
21630.598
20138.674
6809.418
20365.503
19795.661
19876.172
19867.804
21099.279
6964.046
20825.866
20039.775
11471.969
19924.485
20437.439
20258.029
19739.106
11569.466
10852.845
7047.828
21247.917
21742.233
22399.809
22108.456
6848.720
21999.397
20071.078
20619.160
22338.148
10319.202
6831.541
22004.468
20490.424
21025.367
20888.487
20648.400
20950.191
20630.639
10106.386
20177.635
7090.868
20428.298
20202.341
10447.617
21114.988
20678.673
20500.366
19870.155
19643.405
20604.413
20522.429
19819.768
6768.259
20041.568
20091.573
19987.017
19861.868
20555.119
6814.721
9614.008
20583.316
20762.773
19961.518
21606.074
10179.892
6583.406
20402.701
10381.081
20158.813
20172.308
21478.540
7101.878
19795.822
21823.439
20836.844
20375.784
10554.287
20316.747
7197.839
20017.584
20061.720
20649.767
20709.281
10201.539
21102.835
20152.280
21827.757
6993.500
22499.821
20928.741
10617.555
21118.127
20209.993
21365.310
20991.825
20649.389
20396.611
6810.676
20942.392
21207.802
20649.518
20319.538
21531.938
20003.226
20401.444
10104.896
6901.539
19935.801
20551.891
19771.585
10515.306
20924.842
6377.766
20298.051
10425.791
21325.492
19795.352
21231.759
7117.079
20226.069
19775.815
20953.639
20238.314
22851.802
10710.712
7246.336
21373.845
21203.024
21399.806
21804.547
10593.759
20383.794
20873.900
19441.404
6859.609
19349.383
21506.687
19849.310
21833.093
19779.804
10555.792
21741.361
19737.487
18686.734
19905.465
19297.385
23026.772
7032.180
20855.807
20691.778
21724.157
19677.382
20993.480
7377.444
20967.280
11291.819
21485.339
20518.624
10347.236
19545.488
19771.546
7610.815
20789.422
10786.950
22501.056
20250.226
19866.624
20763.886
7036.444
19443.986
20686.808
10199.423
7166.600
21599.245
19200.872
19423.139
20755.797
21096.317
21372.391
10719.832
21390.707
20265.032
19808.833
20354.035
20603.792
6887.788
21322.570
21015.804
19458.524
20605.483
20475.852
20073.962
20248.858
12471.399
21098.561
19429.706
21764.020
6942.637
20259.808
21001.355
18904.626
20495.937
7025.840
10606.729
10034.617
21203.784
20143.978
21215.795
19449.786
6726.707
18596.809
20084.086
10452.216
20693.432
6781.975
21782.844
20643.141
20635.622
10138.950
19743.848
7000.068
21195.519
20604.185
20636.422
21178.371
19576.836
20040.580
22124.286
11087.369
19611.809
21062.776
20907.819
6927.820
19833.401
21568.486
21021.232
20570.593
20919.806
19398.166
20919.775
20070.246
19565.931
10062.346
20267.563
20227.597
7446.414
21298.229
21406.669
10233.175
7320.145
21172.013
20258.645
20423.358
20783.009
21472.004
10844.287
20632.861
6809.864
20508.504
10207.604
20032.371
20079.530
7149.306
20569.370
19882.797
10480.064
19793.775
19444.993
19497.993
21712.674
19850.111
7191.713
21674.660
20756.091
20143.803
20576.503
20169.403
22692.410
10580.444
20352.889
21453.587
19933.347
19911.795
7461.389
21792.453
21474.904
20095.787
22490.906
10146.879
21566.534
19368.727
21116.178
6876.131
21566.547
20845.472
19795.052
10125.524
6613.987
19936.626
20040.657
20942.464
20373.369
20426.093
10823.499
19252.922
6943.104
21235.557
20197.053
10477.640
19886.940
6958.120
20587.786
10046.452
19702.437
20832.385
21171.802
21045.348
19879.868
20065.708
21885.520
6914.064
21055.222
19515.196
21126.945
21362.224
20105.236
20407.797
10132.259
21275.696
20352.934
7301.166
21630.940
21301.969
20700.175
10535.812
21838.518
21283.789
19848.199
21438.291
20217.377
7177.933
10018.212
21201.644
21060.504
20820.779
6865.738
19887.816
20602.473
20139.420
19568.256
10355.685
19369.527
20421.359
10252.243
21088.343
7718.347
20515.029
21407.676
7107.175
10244.606
20060.022
19740.045
19974.631
21358.897
21312.461
21909.945
21589.444
19414.672
6767.508
20440.880
20855.798
10062.164
21971.788
21541.862
21336.672
21267.836
20685.439
19683.572
20357.521
6979.809
20293.386
9641.479
19813.382
20578.337
20363.810
20965.406
19858.145
19110.042
10501.337
6724.147
21985.138
20812.866
20563.810
20374.653
19623.793
6829.933
21734.611
10717.651
21148.512
10412.170
21895.760
6957.234
19787.762
21769.458
20707.330
6992.377
20005.233
10060.197
20671.707
20057.937
20640.978
19982.232
19527.617
20999.830
20754.544
21278.018
7162.677
23365.963
21331.187
20342.912
20935.778
20299.338
19943.801
21155.817
21247.800
20381.916
11321.051
9954.791
19641.471
20662.156
19901.307
7037.396
20692.047
20233.284
20926.471
6609.951
10675.387
19948.245
19438.834
20058.991
19979.833
7061.259
21410.332
7031.302
21595.123
20152.288
19850.454
21870.311
19352.074
7308.584
6490.921
20559.808
6601.637
21433.412
19296.904
20153.918
11026.036
21477.378
19693.178
20196.745
20758.245
21927.852
20494.146
20963.093
19269.841
19439.078
7497.889
22391.807
19974.131
19866.676
21368.327
20755.821
20993.915
21916.732
21001.266
7429.388
7048.004
21450.566
21962.731
20849.455
19259.801
22674.399
20241.517
19729.511
10117.927
20380.249
6860.043
19583.772
22240.774
19254.533
7071.151
7147.943
19382.070
20202.994
21097.538
20562.365
6749.249
20007.213
7027.553
7036.278
9919.984
21468.501
20562.211
21627.495
19412.573
20778.432
20721.506
20405.609
20365.472
21659.805
21507.801
6828.653
20683.800
19113.515
20996.817
19825.464
20495.241
21808.945
19860.634
20846.527
21130.647
21714.716
6640.139
22427.973
7343.595
21729.309
20885.418
21144.320
20386.585
19643.518
20597.064
10524.474
19638.145
6892.824
20648.512
21921.609
21065.802
6796.407
6807.754
20014.068
20701.442
20766.028
21355.807
6550.843
20434.347
6958.246
20087.781
19797.367
7023.897
10043.804
21436.018
19403.616
20890.164
22012.910
20021.684
20212.883
20795.847
19966.758
7066.645
20919.779
20332.241
20689.659
20921.708
21683.468
21235.788
21014.309
21836.216
20432.763
6667.728
20908.330
20132.035
23181.952
7067.828
20906.221
20400.758
20149.430
21401.026
10403.255
21352.612
20051.801
20592.397
7314.647
20501.654
20953.117
6950.682
19884.179
7257.401
19849.625
19939.107
20260.989
19908.952
7530.748
19530.922
7087.803
20791.773
21410.932
10591.769
19405.187
7014.839
20988.916
19408.064
21352.014
20835.809
20499.481
19879.026
19620.340
21008.802
20573.698
19607.480
21084.909
21684.181
20446.750
6854.377
19689.640
20544.041
20804.795
7392.749
20955.575
21765.463
6881.849
20315.804
20807.758
21122.754
19340.472
10332.332
19700.422
22751.424
21029.423
21106.405
6917.519
20608.268
19628.601
20490.995
7225.485
6585.631
19725.760
20650.160
20483.209
7040.324
19934.399
19883.777
20086.994
20269.349
10842.903
7368.547
19752.131
7626.761
19632.529
20281.069
20009.900
22046.051
21333.420
20007.825
19634.878
20703.785
21138.693
20600.470
20510.084
21251.785
21889.333
20501.529
7076.174
21999.652
19724.312
20712.423
20598.129
6801.399
6830.892
20536.741
20495.984
20993.727
20336.934
20457.533
9981.411
21504.558
7040.964
22385.898
21298.511
20036.155
21219.881
20729.152
6689.525
7254.842
20311.053
21653.852
20703.841
19867.790
6948.063
20815.388
20316.275
10447.783
6550.146
19772.322
7253.568
22587.954
20714.018
21345.912
19745.350
20123.211
20061.318
20375.483
19740.162
19846.575
20358.224
21670.982
21507.384
20709.636
20497.585
20507.997
7241.647
22013.434
19900.339
6846.961
21718.485
7063.923
21122.786
21952.802
20171.310
20821.567
19460.361
21074.876
11072.036
19724.491
20217.086
19015.998
20427.848
20382.566
7395.813
6935.898
6852.001
21673.715
20919.260
20242.178
20379.780
20989.715
19464.157
19453.200
6797.160
20060.042
9955.897
7124.241
7832.679
21189.369
19165.158
19959.382
20583.234
21773.874
19073.106
21413.997
20154.052
19037.996
21257.463
20535.075
20321.637
19723.966
21852.025
21623.354
7052.217
21682.164
19867.153
21180.098
6698.279
19709.396
6799.806
20562.020
20257.801
20989.934
22697.151
10828.244
19466.259
21549.673
20586.683
21293.559
18832.446
7301.889
21675.749
7227.561
7217.119
20536.791
20458.224
20654.011
20250.840
20511.798
20200.182
7216.299
9932.743
21325.628
6984.017
20350.493
19771.811
7403.815
20515.137
20105.508
20779.778
19215.825
18922.310
19611.177
21553.754
20281.541
21183.418
21811.694
20150.400
19558.546
20831.603
20393.521
19395.595
6891.611
20913.363
21105.607
6929.588
6771.834
20086.456
21602.733
20762.952
19837.183
19888.611
10547.783
21463.058
21095.183
19920.293
20901.861
20696.665
6739.937
6681.857
6905.843
20120.143
20772.507
20863.310
20863.393
21241.237
21092.660
9872.670
19423.802
7502.156
18819.725
20334.603
6991.963
19859.792
21872.198
6789.532
19911.294
21082.381
20641.347
21063.752
21599.834
20622.094
21972.062
20104.607
20597.492
20678.754
20525.135
20743.974
22317.034
20470.770
7280.555
6994.040
22317.435
7090.161
21081.585
20444.390
19359.842
20563.809
20590.687
10211.984
19271.973
20414.846
20581.585
21585.167
22989.470
6819.290
7109.652
19601.434
7256.140
19306.279
20213.997
20332.657
20627.280
19363.790
21764.245
20340.691
20303.784
20376.609
6977.108
19132.365
20459.801
11866.138
7069.256
20104.791
7099.810
20575.801
21039.795
20586.698
21839.785
21183.806
19899.759
21710.565
20633.505
21726.602
19882.642
19999.240
20032.255
6904.420
20979.812
19771.352
20008.670
19629.441
7217.540
6992.037
21265.656
21005.293
20495.893
20650.800
10768.209
20065.235
20215.744
21749.478
6927.266
19577.409
20704.441
6932.180
7320.763
20972.004
20411.135
19163.255
20684.087
21059.770
19942.355
19867.496
20509.734
20575.733
6837.965
21152.193
20290.349
10565.723
19379.782
19461.035
20391.812
7431.903
21199.770
20340.239
7261.682
20106.089
20072.660
21829.308
20248.678
20699.890
19511.400
19177.353
21510.666
19684.295
20678.097
7125.620
21223.310
20031.700
19951.802
6716.223
6739.348
20354.111
21391.082
19463.324
10180.369
20941.382
19425.732
21491.343
7133.746
21468.353
6842.051
19994.060
19875.365
6887.784
21063.034
20783.422
20011.906
22154.365
19934.409
21520.834
22229.380
20451.805
7047.802
10477.131
20491.812
21623.613
20819.783
20550.397
7321.231
22385.084
20063.809
6919.754
20208.943
20775.696
22331.411
22052.978
20787.803
20828.330
20134.476
20445.413
19916.654
21217.061
19738.486
19922.870
20824.004
6568.174
7252.486
20340.696
9744.271
21002.695
21699.779
10030.427
10703.861
20069.500
19860.304
20587.327
19626.470
20198.248
7033.733
20941.502
7186.540
20420.147
21131.755
20872.156
20037.837
20237.364
19685.928
10397.730
10785.346
20776.065
20471.789
20627.790
22071.154
19749.477
19911.799
21243.470
11293.381
20567.775
6866.551
6791.540
20487.776
20398.156
21116.020
19784.364
20458.337
22107.802
20859.936
21786.249
21087.799
20917.848
21427.800
21915.842
6773.767
19553.886
20734.589
7177.861
10229.822
10205.618
21389.385
19757.568
20099.890
10000.159
21461.640
20581.555
19869.417
7005.217
22152.249
6790.272
20109.678
20580.124
20400.683
20858.132
19480.580
21615.149
10027.394
20060.840
10797.433
20025.541
20829.729
19964.046
10211.792
21832.108
21754.716
6955.126
20021.443
6742.017
21381.450
20855.999
23951.526
19644.584
20282.676
19907.808
21183.285
18791.435
19445.824
20357.982
20114.243
21201.979
20609.354
7369.101
10043.593
7207.803
9733.960
19674.228
22312.615
21887.275
20870.675
9985.631
22279.089
20879.547
21585.341
19940.928
19383.186
19388.870
19352.275
7029.415
20421.102
7421.732
21089.535
21718.094
19966.878
10305.486
9896.817
21477.394
19764.435
20592.861
20121.362
20027.857
20927.620
11006.329
20349.533
20984.368
19859.857
6947.791
20727.449
19722.429
19970.753
20485.181
7112.954
20427.498
21515.149
20975.799
21345.981
20665.474
20370.325
21220.171
10119.050
7125.884
20086.437
20197.595
10901.129
6788.238
20745.395
21423.783
20109.343
19473.318
11192.309
20498.081
20057.588
20459.017
20158.853
20745.351
7173.818
21353.752
6958.449
19385.607
20144.341
10138.569
20827.099
21325.588
21846.282
19885.322
20323.037
10842.891
21193.390
19466.190
21297.125
19631.800
20647.120
20539.516
10620.105
6604.377
21015.803
6682.117
19979.809
21143.907
19690.576
20842.548
19748.145
19419.755
23711.406
20891.204
19573.001
21444.252
10624.275
20674.385
7343.378
19729.042
6918.569
10199.799
20087.802
20586.973
22146.916
10079.781
21395.373
20152.113
21291.773
20172.169
21422.554
20122.835
6711.808
6957.414
21195.439
18964.735
21339.873
10641.055
20329.063
20744.865
20497.451
21036.270
10467.154
21605.420
21730.333
21103.792
21213.367
19519.789
10203.794
20782.023
21354.155
19600.278
20568.639
6722.452
7112.482
20447.806
19287.479
20457.866
21716.579
21421.428
20089.236
22548.337
19509.000
9902.468
20905.219
21895.804
20192.360
7287.793
10436.786
7427.241
20201.461
19881.847
19749.127
19808.190
10709.514
20338.235
20678.027
19914.872
6679.430
20477.257
21543.015
6982.934
19373.533
19222.472
21229.614
19579.160
20472.482
11297.018
20919.647
10387.806
20398.329
20016.633
20479.077
20418.854
10052.677
20821.276
21279.775
19703.752
21163.782
21115.801
19868.663
21571.748
7151.809
6940.397
19382.674
20807.332
19595.769
20084.409
19535.542
22255.445
21338.113
20587.802
10815.928
6843.780
20460.461
10752.230
20271.800
7413.562
22492.514
10315.488
20181.262
21047.427
21645.536
21087.141
20609.543
19037.091
20048.434
21315.525
7320.933
19369.672
6872.289
21621.469
20561.368
21502.469
9965.852
19722.576
10427.319
22483.791
20299.786
20015.254
20998.517
20091.822
10473.798
20652.606
20112.074
20527.235
21914.976
21566.733
21355.803
6395.815
20280.475
6995.977
21065.495
21471.646
21009.228
20635.154
19465.384
20986.312
20149.344
10426.575
21763.810
6986.311
20571.804
19927.785
10621.753
6637.580
19854.197
10143.157
21853.500
21827.854
20611.809
20850.696
20924.492
20007.792
6650.331
20375.611
20981.248
7560.441
20725.965
20407.182
19943.985
19568.826
10250.689
10655.801
21061.517
19653.790
20934.001
20100.113
9951.755
22253.625
20301.620
20430.029
20214.171
6630.584
20819.546
20437.879
22327.989
20158.197
20560.910
18575.427
7064.582
23589.192
6692.484
20769.006
18854.495
21173.167
19555.949
19713.837
21257.553
6910.170
21457.197
20053.425
21478.704
10798.192
19697.595
7791.798
20915.688
7245.177
19168.313
20754.233
21162.264
6829.638
20437.852
21479.155
19839.362
19313.932
21509.509
6643.794
21142.352
20331.778
20755.821
7079.807
20649.473
19607.839
21655.050
19796.838
19303.817
20683.159
9985.367
22784.598
21674.681
6992.231
20205.402
20571.810
21317.405
21331.751
20811.804
20742.260
7006.471
7136.219
20473.917
20295.984
19227.818
19842.405
20986.824
21643.795
7039.450
20228.751
19560.611
11188.472
19777.647
21824.728
7635.175
21651.348
20576.219
7220.414
20740.103
21181.306
20306.801
20625.139
7071.810
19682.808
20871.834
20381.145
20391.820
19987.272
20231.748
20259.813
7065.876
19679.794
21500.720
20106.100
20230.693
7149.863
19340.283
20716.876
19767.312
22652.906
19539.791
11239.837
20713.703
20125.382
7244.188
21446.654
20273.493
19144.984
19267.430
19436.047
7300.049
19268.929
7401.921
20947.795
21330.629
6978.688
21474.668
21192.265
19816.258
20416.160
21178.758
20044.673
7119.232
11219.912
20316.493
7049.448
21002.545
20789.066
19252.798
6644.127
19207.811
21359.793
19651.798
19315.243
21388.853
20603.766
19928.008
20695.827
22140.597
7067.975
21576.557
20517.447
6838.649
22500.324
20318.530
22679.712
20901.288
21397.347
6862.446
20166.407
19791.793
21286.262
10371.927
21263.316
18861.330
19901.969
20929.921
20215.280
20175.850
7480.299
6767.293
6681.103
21557.404
20484.598
19285.117
21244.310
19899.344
20111.118
20636.707
20892.998
11108.023
19116.160
7619.788
7322.140
20051.014
20134.952
20372.834
21440.454
7258.216
21424.326
20209.134
21190.245
20187.708
20289.627
20869.051
20766.643
19877.299
19179.028
21270.127
6737.791
20147.785
7146.723
20176.563
20078.446
19312.471
20434.587
20571.806
21008.631
6816.050
20928.264
20327.607
10436.322
21740.699
20268.690
21359.095
22314.745
6730.809
6759.033
20380.775
19888.663
19827.801
7414.307
21093.126
22139.189
20209.341
21135.476
19187.630
20329.445
7008.725
19458.260
7217.825
20761.395
20572.950
12033.870
20776.287
20416.479
6968.856
20000.608
19737.512
21347.086
20969.797
20707.433
21405.401
20585.187
19419.798
20803.711
20151.688
6993.345
20745.475
6725.372
20740.078
20585.632
20782.571
20727.704
20742.618
20019.770
7095.626
20567.811
21311.117
9996.500
20152.729
19882.025
20665.539
7028.344
19427.545
19534.069
7764.001
20438.006
20286.972
20795.352
7086.253
21156.751
20340.938
20246.245
21315.377
19708.320
19844.007
6898.431
10299.121
7017.786
21523.552
22247.472
21112.455
19450.397
7409.158
20027.776
21242.240
22495.758
20331.781
21046.441
21441.370
20825.378
19120.895
21426.843
19791.267
20763.835
19183.805
19151.611
7262.754
21194.874
20164.337
20864.452
7095.787
20058.317
6926.671
21811.511
10133.567
20951.602
20834.978
19062.778
22143.138
20649.705
20477.533
7119.839
6701.822
20536.317
18839.763
20699.755
20176.716
7196.853
20821.330
20310.155
20797.804
20575.784
9918.443
7358.904
7051.797
20261.385
20149.718
20780.845
20653.899
20644.890
6533.882
19779.143
19491.107
20428.748
21451.811
20639.859
20411.820
20293.896
19531.490
20157.833
20325.182
20777.551
20369.610
21397.721
6953.092
7011.770
21385.317
20485.610
21171.791
6653.035
19818.361
10974.264
20715.426
22089.336
20189.315
20404.328
20881.570
20342.291
23475.250
7193.068
7391.750
19929.440
20477.441
21051.796
6943.238
19220.333
20760.578
21918.482
22121.320
10697.786
20051.714
6610.190
20007.822
7214.231
21418.543
19573.435
18763.974
20689.201
20040.758
22662.303
19933.522
7634.827
20471.810
20545.178
19490.964
21196.509
21502.966
20870.480
21117.530
21042.177
21328.554
19931.854
20347.821
6863.286
21434.194
7210.686
18794.541
19904.101
10026.201
21136.933
9998.243
18908.995
22263.799
10337.695
21562.475
21543.820
6711.802
20743.759
20507.617
21333.905
20769.466
20124.388
6942.893
19691.130
19626.001
22407.754
10031.626
6836.414
22102.817
20294.958
21039.787
19286.572
20914.445
20750.632
7063.815
9971.195
21231.592
20369.590
10702.445
22031.817
20545.450
19579.772
21644.947
19153.946
20169.518
20040.503
22083.554
19306.134
20687.946
21565.936
19806.210
7401.575
22139.809
6777.440
21188.219
10199.811
21371.604
20183.511
10772.729
10260.358
20052.384
20625.486
21489.603
21375.870
20691.810
20099.788
7176.874
21731.440
21572.794
7278.007
21198.519
10248.829
21324.260
21963.117
20424.469
20743.754
18429.778
20252.700
19007.836
21237.276
19371.821
18989.755
19183.233
19267.792
21431.817
21871.770
7655.787
19665.888
18941.482
10183.809
7301.521
10400.375
19029.343
18984.462
20591.818
20015.274
22518.208
20370.476
22416.199
6567.457
20523.113
10404.321
7094.252
19427.662
21254.132
19510.024
10260.795
10252.366
20549.742
20415.803
21254.545
21448.378
20531.516
6992.193
21859.863
21555.808
7190.484
20162.043
10717.095
19891.499
22221.241
20590.602
20247.779
20471.799
21549.724
19759.797
20815.802
20457.562
20209.612
20144.880
20155.777
20158.931
21782.680
7401.408
22001.052
10076.032
10821.394
21588.041
7173.438
20317.639
19841.913
19684.157
19900.035
21547.381
19113.599
21272.518
21002.912
6791.644
7116.289
10705.332
7221.296
20890.720
21148.708
20397.254
19410.138
22355.269
19854.712
19816.470
21699.805
19589.098
6751.551
21256.755
6912.973
6983.230
19837.662
19806.314
18558.455
19478.440
20310.715
10434.062
19811.837
19617.215
19905.204
21690.427
20715.804
21419.781
21405.683
19545.498
22183.795
21764.191
7399.007
20591.784
7090.497
22140.163
19927.125
22523.223
7169.408
20954.220
18578.615
19675.598
21415.994
19643.496
22005.311
21929.261
6944.125
9824.103
6834.612
7399.674
21378.694
20867.340
18998.010
19823.535
20717.715
20243.796
21671.607
21498.164
21307.814
20192.217
7124.223
7178.791
20252.357
6756.217
19815.802
9569.383
21015.891
19687.806
20599.605
20729.630
20613.735
19961.522
20417.945
20315.826
19537.494
20398.153
21307.600
22177.464
19246.018
20282.461
21973.473
7263.146
7019.403
21471.943
6587.790
20852.460
19387.745
20312.663
22640.856
20990.346
20019.416
20233.480
19363.929
10248.079
7274.284
6861.403
6796.967
19746.594
20279.381
21279.552
20442.168
21681.443
19617.488
20128.365
22355.058
21200.200
21398.212
19669.281
19657.900
6979.786
7020.256
19147.614
7391.571
10776.933
21105.874
21213.522
20280.930
21137.864
19694.464
19990.676
20318.744
20275.770
20429.455
20960.165
21433.581
21141.763
21926.486
21825.624
19666.222
6900.955
20855.437
7279.761
20513.321
20232.335
7491.539
21303.804
19991.803
20320.928
20322.451
20904.784
10377.092
6797.903
19993.307
7112.837
19828.057
21397.409
20472.156
7399.812
22314.551
19497.306
19957.614
21275.802
21862.027
20090.263
20635.803
6860.969
6611.775
21647.805
19947.323
10041.742
19875.810
19292.330
20583.413
7271.569
20674.019
19941.930
19785.987
23071.794
20066.422
21697.240
19992.852
20738.466
20691.140
20199.797
21001.167
19242.752
7124.026
6958.080
20767.642
22237.235
19999.777
20269.702
22480.769
20791.854
19881.597
7159.612
21819.816
10252.442
6514.164
7055.543
20841.421
20086.154
20405.195
21441.600
19418.766
20015.106
7209.736
20519.797
19653.269
22125.513
21422.442
22972.083
6877.400
7342.038
19871.308
19891.005
20466.727
19521.633
19750.122
19354.760
20920.323
22095.786
20311.813
10947.793
21565.070
7170.610
20800.560
20657.168
20037.452
20068.379
19421.083
19674.657
21660.823
20125.712
20131.815
6854.700
7437.753
20590.942
21095.678
20355.207
21491.146
21016.511
6928.212
22304.987
10688.249
20455.841
20587.405
7030.713
6807.144
20302.505
20327.783
19966.170
20705.058
21147.858
20195.098
7342.737
20653.992
19517.311
20150.969
19275.445
20516.983
6694.829
20561.395
6812.563
20404.736
20278.966
21030.142
20399.823
20628.561
19797.432
21653.245
10800.832
19087.866
20041.957
19195.676
7147.032
19774.195
22249.058
21433.414
19576.410
20584.122
19924.136
22891.539
20187.054
6955.920
7147.776
20687.109
19887.173
20461.243
20070.340
6718.413
10297.981
20866.480
19838.924
6936.110
19613.526
21179.964
21761.153
22611.731
20524.950
21248.425
10397.203
7453.399
10595.999
20623.183
21636.171
19622.695
19168.738
19960.482
20342.424
20083.582
21663.020
7127.517
20998.978
20145.184
21467.995
20309.866
19420.695
10175.780
21597.405
21218.078
21689.602
6727.716
20470.934
18901.553
20822.244
20449.402
20815.799
10049.679
10051.899
21534.652
7104.014
21579.801
20488.661
20805.421
20767.708
22512.715
7647.981
10550.524
20520.311
20707.164
19981.227
20656.710
7435.559
21234.770
20648.103
20281.232
21128.285
20183.536
10674.117
10625.827
20758.131
20417.453
19845.498
7177.265
19839.696
20064.127
19525.488
19084.444
20400.895
19838.607
19740.217
20898.205
21155.785
19106.272
7520.967
20085.612
11148.286
19718.622
21890.568
19097.351
19369.373
6889.933
22017.253
22196.280
9788.384
10175.192
20335.051
19579.621
20803.296
21652.764
6939.066
20836.398
21287.578
6805.783
20555.243
10232.007
20942.144
21931.090
20045.898
21311.457
20175.780
20644.084
7331.863
19903.779
10516.402
20422.817
10479.820
21620.075
20722.697
6441.428
21155.824
20237.058
20794.814
21123.807
19890.442
20927.802
21745.413
20287.500
20572.231
19304.496
9852.219
20991.781
20301.973
7157.355
22100.999
22792.523
20555.806
21113.913
7294.754
19549.871
20437.396
9906.152
20016.401
20379.824
10156.666
19831.774
21252.082
21733.200
6977.273
21049.113
7033.692
20065.394
11184.266
21369.576
19592.520
20746.472
20646.552
19731.536
20865.533
6641.050
21169.996
9881.461
10877.604
20407.796
20379.795
20348.445
21371.483
20659.791
7408.015
20526.482
20544.724
19823.655
20481.823
21561.621
20594.952
21147.568
19847.529
19505.720
19929.605
20295.392
21735.411
7055.607
10563.758
21070.539
20839.792
6841.862
21144.551
9696.965
20075.790
20500.646
21588.661
9943.875
19150.714
20754.749
21348.616
7200.717
21121.554
7029.877
20524.968
20804.550
20243.712
10677.396
20857.029
20155.998
22721.960
19156.681
21271.797
10562.010
20051.798
10255.141
20792.404
7172.058
20695.532
20168.982
6961.994
21971.801
22277.739
20875.793
20552.390
20679.635
21747.067
19386.048
20449.452
20228.564
21630.003
20907.625
20283.817
21430.401
20227.810
20275.764
6431.816
10028.995
19430.213
6783.507
9920.446
20569.500
20741.086
10371.807
21251.871
19514.365
20252.147
6680.024
21046.048
22898.763
20091.414
19265.481
7039.623
9879.190
21060.718
20654.024
20044.804
21215.809
9804.029
20667.779
21022.405
10204.289
20623.791
7471.160
20695.040
21722.691
20182.431
20044.951
19563.821
20298.577
20499.857
7229.937
19732.206
20342.670
19981.479
19582.668
21623.698
21072.335
21986.648
19880.040
20894.026
10301.399
21538.242
7224.566
21887.812
20876.109
9660.626
20117.876
10345.271
20323.806
7224.454
21655.257
20983.894
20452.121
19718.935
6797.570
21419.956
20705.926
19033.086
10525.419
19937.928
19769.705
7201.607
22639.785
10167.926
21275.032
21095.139
21807.313
21373.485
11209.625
20541.519
20333.281
6793.788
20590.160
21149.559
20399.789
21423.798
19958.315
21131.562
6888.158
22208.684
19512.158
20497.454
21916.864
20016.264
21679.997
20295.770
21291.778
10137.917
19951.890
20204.207
7199.811
19615.772
21505.909
10644.620
20270.847
9603.568
20067.666
6713.502
20624.304
21389.360
19793.136
19602.247
6918.805
19416.884
19702.988
21599.822
10331.968
20188.803
19976.638
7487.768
21910.168
10435.639
19782.197
20647.621
20485.151
19173.455
10671.797
20343.800
6484.119
21540.208
20647.975
19501.434
21072.475
20749.119
21505.209
19785.268
20001.743
6955.754
19581.276
19771.607
20297.103
21612.440
22245.486
23342.306
10858.218
20442.459
21488.495
6943.799
20941.501
10054.465
21982.912
21119.430
19505.342
10756.666
21243.773
7510.356
19932.653
22234.005
20640.952
6723.060
21357.504
20446.724
20801.364
9913.668
20746.544
20795.052
6571.243
21131.926
19604.641
19680.582
20925.480
11318.353
20554.642
10366.589
6891.539
21773.722
19384.190
20314.459
21616.193
19777.650
20090.554
20418.750
21580.837
19447.023
20526.495
6532.203
20387.852
20497.214
19521.489
20232.723
10497.790
21779.799
21001.037
21035.319
7508.987
21128.494
20388.033
20580.566
10756.789
10045.969
20447.789
21227.592
19991.402
7439.788
20835.994
19350.025
21725.486
19725.431
7223.742
20626.876
20941.701
20243.841
11059.807
20468.859
7119.311
20552.558
21591.337
10500.545
10059.819
21169.840
21793.679
19659.920
20806.537
20486.582
20050.374
20131.803
6897.425
21190.736
20469.985
19546.160
20554.098
22110.393
19816.820
20011.325
21231.542
7041.050
21021.799
20425.723
6936.360
19573.165
20821.509
21221.402
20116.106
11051.784
6479.780
20921.356
20399.855
19021.352
21676.363
7528.872
19711.358
22967.820
20316.811
7666.008
6712.447
19811.732
21520.060
19786.081
19472.006
20954.262
10208.014
19779.798
7122.111
21039.754
19876.898
6596.815
20999.827
23162.566
21722.205
20615.797
21160.929
7073.816
20647.767
20214.988
19947.773
21263.811
19163.799
20604.339
19465.204
21151.052
19533.602
20757.810
20736.569
19569.271
6767.806
19557.513
20788.408
7393.790
20367.782
10040.050
20934.615
7129.070
20944.521
22047.704
20395.791
19498.427
21357.042
20024.015
19858.293
7467.662
6928.238
20395.306
7092.012
20923.547
20412.227
19851.796
19258.920
10350.968
22080.176
19445.532
6767.479
19950.343
20820.872
21667.095
19795.242
19739.801
20840.513
20263.219
21523.816
19913.448
22735.817
7855.815
6905.850
20299.813
21914.477
20874.576
20616.585
19496.236
20795.774
21225.174
21810.540
20695.788
20142.388
6979.600
10259.632
20994.522
20880.147
6521.404
6819.016
20461.829
20237.065
19728.516
20457.842
21948.072
20317.713
21114.921
7289.945
19711.459
20032.225
21450.743
7284.140
7233.544
21401.003
20512.299
22129.049
11405.268
20432.318
19200.479
19833.131
19711.808
20094.613
20468.318
19290.564
7329.374
19901.427
19862.411
20179.998
20475.791
19871.274
6873.760
22960.111
7389.842
19403.796
20491.780
21429.574
19930.770
20181.843
21163.597
20409.638
20788.477
6516.193
19077.840
21082.697
10112.171
6738.170
6567.200
19089.172
22514.350
21028.204
19534.421
16624.321
19838.928
20522.762
19951.829
16335.355
15513.953
13870.858
12995.286
19245.838
19064.960
13715.000
13801.429
17183.244
13491.358
14887.437
13955.778
14414.816
16750.489
15467.644
13132.662
14099.958
12918.722
15271.015
10650.202
13606.809
14164.801
12907.653
14331.005
